<?xml version="1.0"?>
<!DOCTYPE svg PUBLIC "-//W3C//DTD SVG 1.1//EN" "http://www.w3.org/Graphics/SVG/1.1/DTD/svg11.dtd">
<svg xmlns="http://www.w3.org/2000/svg" xmlns:xl="http://www.w3.org/1999/xlink" version="1.1" viewBox="-6 0 200 156" width="200pt" height="13pc"><metadata xmlns:dc="http://purl.org/dc/elements/1.1/"><dc:date>2014-11-06 10:34Z</dc:date><!-- Produced by OmniGraffle Professional 5.4.4 --></metadata><defs><font-face font-family="Helvetica" font-size="69" units-per-em="1000" underline-position="-75.683594" underline-thickness="49.316406" slope="0" x-height="532.22656" cap-height="719.72656" ascent="770.01953" descent="-229.98047" font-weight="bold"><font-face-src><font-face-name name="Helvetica-Bold"/></font-face-src></font-face></defs><g stroke="none" stroke-opacity="1" stroke-dasharray="none" fill="none" fill-opacity="1"><title>Canevas 1</title><rect fill="white" width="559" height="783"/><g><title>Calque 1</title><ellipse cx="56.5" cy="58.5" rx="50.50008" ry="46.500072" fill="white"/><ellipse cx="56.5" cy="58.5" rx="50.50008" ry="46.500072" stroke="black" stroke-linecap="round" stroke-linejoin="round" stroke-width="3"/><text transform="translate(21.1 17)" fill="black"><tspan font-family="Helvetica" font-size="69" font-weight="bold" fill="black" x="10.485205" y="67" textLength="49.82959">H</tspan></text><path d="M 180.35827 144.92986 L 98 86.465207 L 99.736574 84.01892 L 182.09484 142.48357 Z" fill="black"/><path d="M 180.35827 144.92986 L 98 86.465207 L 99.736574 84.01892 L 182.09484 142.48357 Z" stroke="black" stroke-linecap="round" stroke-linejoin="round" stroke-width="1"/></g></g></svg>
