<?xml version="1.0" encoding="iso-8859-1"?>
<!-- Generator: Adobe Illustrator 13.0.0, SVG Export Plug-In . SVG Version: 6.00 Build 14948)  -->
<svg version="1.2" baseProfile="tiny" id="Calque_1"
	 xmlns="http://www.w3.org/2000/svg" xmlns:xlink="http://www.w3.org/1999/xlink" x="0px" y="0px" width="29.762px"
	 height="29.762px" viewBox="0 0 29.762 29.762" xml:space="preserve">
<g id="Train_accident">
	<g>
		<path d="M29.762,14.878L14.881,29.762L0,14.878l0.354-0.353l0.353,0.355l-0.353-0.355L14.881,0L29.762,14.878L29.762,14.878z
			 M28.346,14.878L14.881,1.413L1.415,14.879l13.466,13.467L28.346,14.878L28.346,14.878z"/>
		<polygon fill-rule="evenodd" fill="#FFFFFF" points="14.88,28.35 28.348,14.88 14.88,1.413 1.413,14.88 14.88,28.35 		"/>
	</g>
	<path id="Symbol_86_" d="M9.588,16.682c0.813,0,1.47,0.658,1.47,1.47c0,0.093-0.009,0.185-0.025,0.272h0.442
		c-0.016-0.088-0.025-0.18-0.025-0.272c0-0.812,0.659-1.47,1.471-1.47c0.813,0,1.47,0.658,1.47,1.47
		c0,0.093-0.009,0.185-0.025,0.272h3.13c-0.174-0.328-0.272-0.703-0.272-1.1c0-1.293,1.048-2.342,2.34-2.342
		c1.293,0,2.343,1.049,2.343,2.342s-1.05,2.34-2.343,2.34c-0.674,0-1.279-0.284-1.707-0.739h-3.684
		c-0.26,0.417-0.724,0.696-1.251,0.696c-0.528,0-0.992-0.279-1.25-0.696h-0.831c-0.26,0.417-0.724,0.696-1.251,0.696
		c-0.812,0-1.471-0.658-1.471-1.47S8.776,16.682,9.588,16.682z M6.484,18.141l1.067-1.809L7.31,16.335c0,0,0.003-0.852,0.003-0.938
		c0-0.087,0.064-0.131,0.13-0.131s0.523,0,0.523,0v-1.808l-0.458-2.439l0.458-0.936h2.046l0.479,0.849l-0.479,2.505h0.851v-0.468
		c0-0.127,0.103-0.229,0.229-0.229h1.371c0.128,0,0.229,0.102,0.229,0.229v0.468h0.437v-0.468c0-0.127,0.103-0.229,0.229-0.229
		h1.372c0.127,0,0.229,0.102,0.229,0.229v0.468h0.609c0,0,0.261-1.612,0.305-1.765s0.261-0.348,0.479-0.348c0.219,0,6.12,0,6.12,0
		s0.088-0.044,0.088,0.043v0.85c0,0.196,0.042,0.218-0.044,0.218c-0.088,0-0.393,0-0.393,0s0,1.35,0,2.613
		c0.697,0.631,0.937,1.677,0.937,2.2c0,0.522-0.697,0.479-0.697,0c0-0.479-0.565-2.657-2.874-2.657s-2.679,2.461-2.679,2.81
		c0,0.348,0.087,0.719,0.087,0.719s-1.633,0-2.091,0c0-0.326-0.153-1.83-1.83-1.83c-1.241,0-1.697,1.002-1.697,1.002
		s-0.589-1.023-1.635-1.023c-1.59,0-1.938,1.503-1.938,1.633c0,0.131,0,0.24,0,0.24H6.484z M16.242,13.458h2.475
		c0.126,0,0.229-0.103,0.229-0.229v-1.256c0-0.127-0.103-0.229-0.229-0.229h-2.188c-0.125,0-0.243,0.111-0.271,0.273
		c-0.03,0.163-0.223,1.078-0.244,1.212C15.991,13.363,16.116,13.458,16.242,13.458z"/>
</g>
</svg>
