<?xml version="1.0"?>
<!DOCTYPE svg PUBLIC "-//W3C//DTD SVG 1.1//EN" "http://www.w3.org/Graphics/SVG/1.1/DTD/svg11.dtd">
<svg xmlns="http://www.w3.org/2000/svg" xmlns:xl="http://www.w3.org/1999/xlink" version="1.1" viewBox="1 -3 242 126" width="242pt" height="126pt"><metadata xmlns:dc="http://purl.org/dc/elements/1.1/"><dc:date>2014-11-10 11:57Z</dc:date><!-- Produced by OmniGraffle Professional 5.4.4 --></metadata><defs><font-face font-family="Helvetica" font-size="30" units-per-em="1000" underline-position="-75.683594" underline-thickness="49.316406" slope="0" x-height="532.22656" cap-height="719.72656" ascent="770.01953" descent="-229.98045" font-weight="bold"><font-face-src><font-face-name name="Helvetica-Bold"/></font-face-src></font-face></defs><g stroke="none" stroke-opacity="1" stroke-dasharray="none" fill="none" fill-opacity="1"><title>Canevas 1</title><rect fill="white" width="559" height="783"/><g><title>Calque 1</title><text transform="translate(10 6)" fill="black"><tspan font-family="Helvetica" font-size="30" font-weight="bold" x=".32763672" y="29" textLength="223.34473">Rettungswagen</tspan><tspan font-family="Helvetica" font-size="30" font-weight="bold" x="24.20459" y="65" textLength="16.669922">/ </tspan><tspan font-family="Helvetica" font-size="30" font-weight="bold" x="39.77588" y="65" textLength="160.01953">Ambulanza</tspan><tspan font-family="Helvetica" font-size="30" font-weight="bold" x="26.980469" y="101" textLength="170.03906">/Ambulance</tspan></text></g></g></svg>
