<?xml version="1.0"?>
<!DOCTYPE svg PUBLIC "-//W3C//DTD SVG 1.1//EN" "http://www.w3.org/Graphics/SVG/1.1/DTD/svg11.dtd">
<svg xmlns="http://www.w3.org/2000/svg" xmlns:xl="http://www.w3.org/1999/xlink" version="1.1" viewBox="3 -2 119 138" width="119pt" height="138pt"><metadata xmlns:dc="http://purl.org/dc/elements/1.1/"><dc:date>2014-11-05 16:00Z</dc:date><!-- Produced by OmniGraffle Professional 5.4.4 --></metadata><defs></defs><g stroke="none" stroke-opacity="1" stroke-dasharray="none" fill="none" fill-opacity="1"><title>Canevas 1</title><rect fill="white" width="559" height="783"/><g><title>Calque 1</title><path d="M 17 124 L 62.5 15 L 108 124 Z" fill="white"/><path d="M 17 124 L 62.5 15 L 108 124 Z" stroke="#6cf" stroke-linecap="round" stroke-linejoin="miter" stroke-width="6"/></g></g></svg>
