<?xml version="1.0"?>
<!DOCTYPE svg PUBLIC "-//W3C//DTD SVG 1.1//EN" "http://www.w3.org/Graphics/SVG/1.1/DTD/svg11.dtd">
<svg xmlns="http://www.w3.org/2000/svg" xmlns:xl="http://www.w3.org/1999/xlink" version="1.1" viewBox="-5 0 192 116" width="16pc" height="116pt"><metadata xmlns:dc="http://purl.org/dc/elements/1.1/"><dc:date>2015-03-10 17:17Z</dc:date><!-- Produced by OmniGraffle Professional 5.4.4 --></metadata><defs><font-face font-family="Calibri" font-size="30" panose-1="2 15 7 2 3 4 4 3 2 4" units-per-em="1000" underline-position="-87.402344" underline-thickness="90.82031" slope="0" x-height="468.74997" cap-height="631.83594" ascent="952.1484" descent="-268.55469" font-weight="bold"><font-face-src><font-face-name name="Calibri-Bold"/></font-face-src></font-face></defs><g stroke="none" stroke-opacity="1" stroke-dasharray="none" fill="none" fill-opacity="1"><title>Canevas 1</title><g><title>Calque 1</title><rect x="7" y="12" width="168" height="92" fill="white"/><rect x="7" y="12" width="168" height="92" stroke="black" stroke-linecap="round" stroke-linejoin="round" stroke-width="3"/><text transform="translate(12 21)" fill="black"><tspan font-family="Calibri" font-size="30" font-weight="bold" x="10.804199" y="29" textLength="16.625977">fi</tspan><tspan font-family="Calibri" font-size="30" font-weight="bold" x="27.430176" y="29" textLength="10.6640625">r</tspan><tspan font-family="Calibri" font-size="30" font-weight="bold" x="37.757324" y="29" textLength="15.102539">e</tspan><tspan font-family="Calibri" font-size="30" font-weight="bold" x="52.640137" y="29" textLength="16.625977">fi</tspan><tspan font-family="Calibri" font-size="30" font-weight="bold" x="69.266113" y="29" textLength="30.322266">gh</tspan><tspan font-family="Calibri" font-size="30" font-weight="bold" x="99.31006" y="29" textLength="17.563477">ti</tspan><tspan font-family="Calibri" font-size="30" font-weight="bold" x="116.873535" y="29" textLength="30.322266">ng</tspan><tspan font-family="Calibri" font-size="30" font-weight="bold" x="22.19336" y="66" textLength="12.553711">c</tspan><tspan font-family="Calibri" font-size="30" font-weight="bold" x="34.600586" y="66" textLength="87.53906">ompan</tspan><tspan font-family="Calibri" font-size="30" font-weight="bold" x="121.597656" y="66" textLength="14.208984">y</tspan></text></g></g></svg>
