<?xml version="1.0" encoding="iso-8859-1"?>
<!-- Generator: Adobe Illustrator 13.0.0, SVG Export Plug-In . SVG Version: 6.00 Build 14948)  -->
<svg version="1.2" baseProfile="tiny" id="Calque_1"
	 xmlns="http://www.w3.org/2000/svg" xmlns:xlink="http://www.w3.org/1999/xlink" x="0px" y="0px" width="24.998px"
	 height="24.999px" viewBox="0 0 24.998 24.999" xml:space="preserve">
<g id="Medical">
	<g>
		<path d="M0,0v24.999h24.998V0H0z"/>
		<rect x="0.998" y="0.999" fill="#FFFFFF" width="23" height="23.002"/>
		<polygon points="2.223,5.804 2.78,7.196 12.5,3.309 22.222,7.196 22.779,5.804 12.498,1.691 		"/>
	</g>
	<path d="M12.314,22.742c0.098,0.102,0.206,0.191,0.315,0.279c-0.015,0.149-0.023,0.305-0.084,0.444
		c-0.015,0.038-0.044,0.065-0.077,0.088c-0.047-0.044-0.078-0.102-0.094-0.163C12.314,23.181,12.314,22.959,12.314,22.742
		 M12.289,20.541c0.16,0.109,0.283,0.273,0.334,0.461c0.045,0.123,0.026,0.254,0.027,0.383c-0.002,0.33-0.008,0.66-0.014,0.99
		c-0.158-0.271-0.293-0.563-0.336-0.877C12.293,21.178,12.292,20.859,12.289,20.541 M12.029,20.337
		c0.029,0.021,0.057,0.043,0.084,0.064c-0.002,0.299,0.015,0.596,0,0.895c-0.006,0.359,0.123,0.705,0.289,1.019
		c0.116,0.22,0.261,0.423,0.409,0.62c-0.274-0.197-0.52-0.439-0.703-0.725c-0.243-0.381-0.374-0.842-0.323-1.293
		C11.806,20.705,11.904,20.507,12.029,20.337 M12.26,18.337c0.15,0.098,0.291,0.205,0.422,0.324
		c-0.002,0.402-0.009,0.804-0.013,1.205c-0.132-0.103-0.263-0.209-0.393-0.314C12.271,19.148,12.266,18.744,12.26,18.337
		 M11.366,18.857c0.062-0.309,0.282-0.557,0.522-0.746c0.064,0.04,0.131,0.079,0.196,0.117c-0.001,0.119,0.007,0.24,0.003,0.36
		c-0.027,0.056-0.082,0.095-0.118,0.146c-0.104,0.136-0.2,0.306-0.163,0.481c0.049,0.188,0.197,0.324,0.336,0.45
		c0.177,0.149,0.359,0.294,0.543,0.435c0.266,0.209,0.465,0.52,0.488,0.862c0.039,0.458-0.106,0.918-0.359,1.296
		c0.004-0.247-0.002-0.494,0.013-0.742c0.035-0.277,0.004-0.572-0.146-0.814c-0.114-0.2-0.318-0.321-0.492-0.465
		c-0.229-0.174-0.459-0.355-0.625-0.596C11.404,19.417,11.307,19.132,11.366,18.857 M12.228,15.623
		c0.167,0.063,0.331,0.134,0.49,0.216c-0.005,0.608-0.016,1.218-0.022,1.826c-0.153-0.096-0.302-0.198-0.445-0.307
		C12.238,16.78,12.234,16.201,12.228,15.623 M10.969,16.191c0.084-0.342,0.333-0.612,0.609-0.814
		c0.156,0.067,0.314,0.127,0.475,0.185c0,0.062,0.001,0.122,0.001,0.183c-0.213,0.128-0.425,0.291-0.528,0.525
		c-0.084,0.186-0.06,0.406,0.033,0.585c0.131,0.255,0.349,0.451,0.568,0.629c0.219,0.171,0.455,0.32,0.693,0.462
		c0.266,0.16,0.516,0.367,0.668,0.641c0.121,0.217,0.152,0.482,0.073,0.718c-0.107,0.325-0.353,0.585-0.616,0.794
		c-0.034-0.035-0.078-0.063-0.104-0.105c-0.002-0.119,0.004-0.238,0.006-0.357c0.128-0.119,0.264-0.253,0.303-0.43
		c0.029-0.182-0.07-0.349-0.178-0.484c-0.254-0.309-0.595-0.528-0.938-0.725c-0.354-0.217-0.675-0.504-0.891-0.862
		C10.977,16.854,10.887,16.512,10.969,16.191 M12.191,12.937c0.188,0.016,0.377,0.021,0.564,0.043
		c-0.013,0.627-0.012,1.253-0.026,1.879c-0.173-0.066-0.345-0.133-0.516-0.201C12.208,14.083,12.198,13.511,12.191,12.937
		 M10.145,13.196c0.094-0.186,0.241-0.34,0.407-0.465c0.361,0.092,0.733,0.134,1.104,0.163c-0.262,0.081-0.52,0.218-0.683,0.444
		c-0.117,0.158-0.164,0.37-0.105,0.56c0.068,0.225,0.244,0.396,0.434,0.525c0.203,0.137,0.434,0.225,0.658,0.318
		c0.264,0.111,0.529,0.213,0.796,0.314c0.341,0.125,0.663,0.309,0.911,0.576c0.189,0.197,0.329,0.455,0.347,0.731
		c0.022,0.292-0.081,0.581-0.236,0.823c-0.18,0.283-0.431,0.514-0.7,0.71c-0.07-0.04-0.136-0.089-0.207-0.129
		c0.002-0.108,0.002-0.216,0.004-0.323c0.223-0.18,0.438-0.383,0.558-0.646c0.081-0.18,0.086-0.395-0.007-0.569
		c-0.124-0.239-0.353-0.399-0.582-0.526c-0.373-0.211-0.794-0.312-1.185-0.482c-0.407-0.174-0.803-0.391-1.13-0.691
		c-0.213-0.199-0.402-0.445-0.465-0.735C10.018,13.592,10.05,13.378,10.145,13.196 M13.86,10.251
		c0.355-0.064,0.717-0.014,1.071,0.03c0.39,0.023,0.789,0.063,1.148,0.227c0.17,0.081,0.344,0.209,0.391,0.402
		c0.047,0.208-0.057,0.412-0.179,0.573c-0.234,0.299-0.556,0.514-0.888,0.689c-0.311,0.158-0.637,0.283-0.973,0.367
		c-0.363-0.234-0.779-0.374-1.195-0.476c0.556-0.024,1.115-0.085,1.648-0.252c0.278-0.088,0.555-0.195,0.799-0.359
		c0.104-0.073,0.213-0.16,0.252-0.286c0.023-0.105,0.01-0.232-0.078-0.305c-0.09-0.074-0.215-0.083-0.326-0.088
		c-0.203-0.004-0.408,0.007-0.61,0.03c-0.161,0.02-0.314,0.079-0.456,0.158c-0.127,0.063-0.25,0.151-0.398,0.154
		c-0.241,0.012-0.495-0.031-0.701-0.161c-0.092-0.049-0.044-0.163-0.011-0.234C13.466,10.518,13.64,10.334,13.86,10.251 M10,10.283
		c0.28-0.031,0.561-0.074,0.844-0.059c0.121,0.01,0.25,0.006,0.355,0.074c0.173,0.104,0.319,0.258,0.408,0.44
		c0.03,0.067,0.066,0.174-0.018,0.218c-0.2,0.126-0.445,0.169-0.68,0.163c-0.165,0.002-0.303-0.099-0.445-0.168
		c-0.139-0.076-0.289-0.131-0.445-0.148c-0.205-0.022-0.412-0.033-0.618-0.027c-0.104,0.006-0.22,0.018-0.304,0.087
		c-0.088,0.071-0.103,0.199-0.079,0.305c0.042,0.131,0.157,0.22,0.266,0.296c0.239,0.158,0.512,0.263,0.784,0.35
		c0.502,0.153,1.027,0.228,1.551,0.248c0.291,0.012,0.582,0.008,0.871,0.046c0.494,0.063,0.984,0.175,1.444,0.368
		c0.28,0.122,0.555,0.279,0.745,0.521c0.166,0.201,0.264,0.467,0.223,0.729c-0.038,0.286-0.209,0.536-0.408,0.737
		c-0.312,0.313-0.699,0.533-1.098,0.715c-0.156-0.1-0.322-0.18-0.492-0.25c0-0.05,0-0.098,0-0.148
		c0.331-0.141,0.684-0.26,0.949-0.511c0.149-0.138,0.262-0.337,0.236-0.546c-0.026-0.234-0.194-0.423-0.379-0.555
		c-0.288-0.202-0.631-0.315-0.977-0.365c-0.497-0.037-0.995-0.071-1.49-0.124c-0.545-0.065-1.08-0.21-1.575-0.446
		c-0.346-0.167-0.679-0.376-0.938-0.664c-0.125-0.145-0.239-0.315-0.258-0.51c-0.014-0.126,0.032-0.254,0.116-0.347
		c0.117-0.131,0.279-0.21,0.441-0.268C9.342,10.337,9.673,10.301,10,10.283 M14.265,6.616c0.136-0.165,0.312-0.301,0.513-0.375
		c0.165-0.046,0.336,0.006,0.494,0.056c0.379,0.132,0.732,0.327,1.09,0.51c0.457,0.234,0.916,0.468,1.398,0.646
		c0.561,0.205,1.172,0.343,1.767,0.226c0.257-0.045,0.493-0.186,0.759-0.18c0.065-0.002,0.162,0.031,0.143,0.115
		c-0.032,0.182-0.168,0.323-0.297,0.446c-0.289,0.26-0.67,0.426-1.063,0.419c0.004,0.059,0.045,0.131-0.003,0.182
		C19,8.723,18.908,8.744,18.822,8.76c-0.309,0.049-0.625,0.001-0.92-0.095c-0.008,0.128-0.018,0.269-0.105,0.37
		c-0.088,0.101-0.227,0.132-0.354,0.131c-0.186,0.003-0.364-0.048-0.538-0.104c-0.065,0.178-0.18,0.361-0.372,0.414
		c-0.275,0.079-0.543-0.05-0.807-0.112c-0.045,0.091-0.092,0.186-0.178,0.243c-0.12,0.085-0.277,0.086-0.416,0.06
		c-0.176-0.037-0.343-0.112-0.496-0.204c-0.034-0.021-0.072-0.034-0.109-0.047c-0.105,0.094-0.199,0.2-0.316,0.277
		c-0.129,0.083-0.291,0.077-0.438,0.058c-0.271-0.042-0.533-0.129-0.792-0.216c0.007-0.531,0.014-1.063,0.023-1.595
		c0.175,0.04,0.37,0.038,0.526-0.063c0.143-0.091,0.215-0.252,0.281-0.4C13.941,7.178,14.057,6.868,14.265,6.616 M9.199,6.5
		c0.25-0.115,0.506-0.238,0.781-0.272c0.189-0.029,0.361,0.081,0.506,0.188c0.309,0.242,0.468,0.611,0.613,0.963
		c0.076,0.172,0.143,0.366,0.301,0.482c0.154,0.115,0.361,0.123,0.544,0.081c0.007,0.533,0.019,1.064,0.022,1.596
		c-0.263,0.087-0.527,0.176-0.801,0.216c-0.142,0.018-0.298,0.021-0.423-0.06c-0.117-0.077-0.212-0.184-0.316-0.277
		c-0.087,0.024-0.158,0.081-0.239,0.119c-0.201,0.097-0.432,0.184-0.656,0.13c-0.15-0.034-0.246-0.167-0.303-0.301
		C8.965,9.427,8.696,9.556,8.422,9.477C8.229,9.424,8.113,9.241,8.049,9.063C7.801,9.139,7.523,9.222,7.271,9.121
		C7.094,9.045,7.056,8.836,7.051,8.666C6.742,8.766,6.408,8.815,6.086,8.751C6.004,8.729,5.896,8.706,5.865,8.616
		c0.002-0.047,0.013-0.093,0.021-0.138C5.473,8.486,5.071,8.301,4.778,8.016c-0.11-0.113-0.225-0.242-0.251-0.403
		C4.508,7.54,4.586,7.499,4.646,7.499C4.91,7.482,5.148,7.623,5.4,7.671c0.504,0.106,1.027,0.025,1.512-0.125
		C7.717,7.297,8.445,6.866,9.199,6.5 M12.32,5.694c0.308-0.073,0.647,0.085,0.795,0.364c0.152,0.272,0.101,0.642-0.123,0.859
		c-0.041,0.043-0.089,0.078-0.137,0.113c-0.034,1.979-0.059,2.958-0.087,4.938c-0.195-0.03-0.392-0.054-0.589-0.064
		c-0.029-1.958-0.054-2.915-0.086-4.872c-0.215-0.137-0.357-0.383-0.349-0.639C11.744,6.064,11.998,5.757,12.32,5.694"/>
</g>
</svg>
