IATA CODE,ICAO CODE,Manufacturer,Aircraft Type / Model ,Wake Category
100, F100,Fokker,100, M
141, B461,British Aerospace,146-100 Pax, M
142, B462,British Aerospace,146-200 Pax, M
143, B463,British Aerospace,146-300 Pax, M
146,,British Aerospace,146 all pax models, M
14.0,,British Aerospace,146 Freighter (-100/200/300QT & QC), M
14X, B461,British Aerospace,146 Freighter (-100QT & QC), M
14Y, B462,British Aerospace,146 Freighter (-200QT & QC), M
14Z, B463,British Aerospace,146 Freighter (-200QT & QC), M
310, A310,Airbus,A310 all pax models, H
312, A310,Airbus,A310-200 pax, H
313, A310,Airbus,A310-300 pax, H
318, A318,Airbus,A318, M
319, A319,Airbus,A319, M
31.0, A310,Airbus,A310 Freighter, M
31X, A310,Airbus,A310-200 Freighter, M
31Y, A310,Airbus,A310-300 Freighter, M
320, A320,Airbus,A320-100/200, M
321, A321,Airbus,A321-100/200, M
32S, n/a,Airbus,A318/319/320/321, M
330, A330,Airbus,A330 all models, H
332, A332,Airbus,A330-200, H
333, A333,Airbus,A330-300, H
340, A340,Airbus,A340 all models, H
342, A342,Airbus,A340-200, H
343, A343,Airbus,A340-300, H
345, A345,Airbus,A340-500, H
346, A346,Airbus,A340-600, H
380,,Airbus,A380 pax, H
38.0,,Airbus,A380 Freighter, H
703, B703,Boeing,707-300 pax, H
707, n/a,Boeing,707/720 all pax models, H
70.0, B703,Boeing,707 Freighter, H
70M, B703,Boeing,707 Combi, H
717, B712,Boeing,717, M
721, B721,Boeing,727-100 pax, M
722, B722,Boeing,727-200 pax, M
727, n/a,Boeing,727 all pax models, M
72B, B721,Boeing,727-100 Mixed Configuration, M
72C, B722,Boeing,727-200 Mixed Configuration, M
72.0, n/a,Boeing,727 Freighter (-100/200), M
72M, n/a,Boeing,727 Combi, M
72S, B722,Boeing,727-200 Advanced pax, M
72X, B721,Boeing,727-100 Freighter, M
72Y, B722,Boeing,727-200 Freighter, M
731, B731,Boeing,737-100 pax, M
732, B732,Boeing,737-200 pax, M
733, B733,Boeing,737-300 pax, M
734, B734,Boeing,737-400 pax, M
735, B735,Boeing,737-500 pax, M
736, B736,Boeing,737-600 pax, M
737, n/a,Boeing,737 all pax models, M
738, B738,Boeing,737-800 pax, M
739, B739,Boeing,737-900 pax, M
73.0, n/a,Boeing,737 all Freighter models, M
73G, B737,Boeing,737-700 pax, M
73H, B738,Boeing,737-800 (winglets) pax, M
73M, B732,Boeing,737-200 Combi, M
73W, B737,Boeing,737-700 (winglets) pax, M
73X, B732,Boeing,737-200 Freighter, M
73Y, B733,Boeing,737-300 Freighter, M
741, B741,Boeing,747-100 pax, H
742, B742,Boeing,747-200 pax, H
743, B743,Boeing,747-300 pax, H
744, B744,Boeing,747-400 pax, H
747, n/a,Boeing,747 all pax models, H
74C, B742,Boeing,747-200 Combi, H
74.0, B743,Boeing,747-300 Combi, H
74E, B744,Boeing,747-400 Combi, H
74.0, n/a,Boeing,747 all Freighter models, H
74J, B744,Boeing,747-400 (Domestic) pax, H
74L, N74S,Boeing,747SP, H
74M, n/a,Boeing,747 all Combi models, H
74R, B74R,Boeing,747SR pax, H
74T, B741,Boeing,747-100 Freighter, H
74U, B743,Boeing,747-300 / 747-200 SUD Freighter, H
74V, B74R,Boeing,747SR Freighter, H
74X, B742,Boeing,747-200 Freighter, H
74Y, B744,Boeing,747-400 Freighter, H
752, B752,Boeing,757-200 pax, H
753, B753,Boeing,757-300 pax, H
757, n/a,Boeing,757 all pax models, H
75.0, B752,Boeing,757 Freighter, H
75M, B752,Boeing,757 Mixed Configuration,H
762, B762,Boeing,767-200 pax, H
763, B763,Boeing,767-300 pax, H
764, B764,Boeing,767-400 pax, H
767, n/a,Boeing,767 all pax models, H
76.0, n/a,Boeing,767 all Freighter models, H
76X, B762,Boeing,767-200 Freighter, H
76Y, B763,Boeing,767-300 Freighter, H
772, B772,Boeing,777-200 pax, H
773, B773,Boeing,777-300 pax, H
777, n/a,Boeing,777 all pax models, H
A26, AN26,Antonov,An-26, L
A28, AN28,Antonov,An-28 / PZL Miele M-28 Skytruck, L
A30, AN30,Antonov,An-30, L
A32, AN32,Antonov,An-32, L
A40, A140,Antonov,An-140, M
A4F, A124,Antonov,An-124 Ruslan, H
AB3, A30B,Airbus,A300 pax, H
AB4, A30B,Airbus,A300B2/B4/C4 pax, H
AB6, A306,Airbus,A300-600 pax, H
ABB, A3ST,Airbus,A300-600ST Beluga Freighter, H
ABF, A30B,Airbus,A300 Freighter, H
ABX, A30B,Airbus,A300C4/F4 Freighter, H
ABY, A306,Airbus,A600-600 Freighter, H
ACD, n/a,Gulfstream Aerospace/Rockwell,Commander/Turbo Commander, L
ACP, AC68,Gulfstream Aerospace/Rockwell,Commander, L
ACT, AC90,Gulfstream Aerospace/Rockwell,Turbo Commander, L
ALM, LOAD,Ayres,LM-200 Loadmaster, M
AN4, AN24,Antonov,An-24, M
AN6, n/a,Antonov,An-26 / An-30 /An-32, M
AN7, AN72,Antonov,An-72 / An-74, M
ANF, AN12,Antonov,An-12, M
APH, n/a,Eurocopter,SA330 Puma / AS332 Super Puma, n/a
AR1, RJ1H,Avro,RJ100 Avroliner, M
AR7, RJ70,Avro,RJ70 Avroliner, M
AR8, RJ85,Avro,RJ85 Avroliner, M
ARJ, n/a,Avro,RJ70 / RJ85 / RJ100 Avroliner, M
ARX, n/a,Avro,RJX85 / RJX100, M
AT4, AT43,Aerospatiale/Alenia,ATR 42-300 / 320, M
AT5, AT45,Aerospatiale/Alenia,ATR 42-500, M
AT7, AT72,Aerospatiale/Alenia,ATR 72, M
ATP, ATP,British Aerospace,ATP, M
ATR, n/a,Aerospatiale/Alenia,ATR 42/ ATR 72, M
AX1, RX1H,Avro,RJX100, M
AX8, RX85,Avro,RJX85, M
B11, BA11,British Aerospace,One Eleven / RomBAC One Eleven, M
B12, BA11,British Aerospace,One Eleven 200, M
B13, BA11,British Aerospace,One Eleven 300, M
B14, BA11,British Aerospace,One Eleven 400/475, M
B15, BA11,British Aerospace,One Eleven 500 / RomBAC One Eleven, M
B72, B720,Boeing,720B pax, M
BE1, B190,Beechcraft,1900/1900C/1900D, M
BE2, n/a,Beechcraft,twin piston engines, L
BEC, n/a,Beechcraft,light aircraft, L
BEH, B190,Beechcraft,1900.0, M
BEP, n/a,Beechcraft,light aircraft - single engine, L
BES, B190,Beechcraft,1900/1900C, M
BET, n/a,Beechcraft,light aircraft - twin turboprop engine, L
BNI, BN2P,Pilatus Britten-Norman,BN-2A/B Islander, L
BNT, TRIS,Pilatus Britten-Norman,BN-2A Mk III Trislander, L
CCJ, CL60,Canadair,Challenger, M
CCX, GLEX,Canadair,Global Express, M
CD2, NOMA,Government Aircraft Factories,N22B / N24A Nomad, L
CL4, CL44,Canadair,CL-44, M
CN1, n/a,Cessna,light aircraft - single piston engine, L
CN2, n/a,Cessna,light aircraft - twin piston engines, L
CNA, n/a,Cessna,light aircraft, L
CNC, n/a,Cessna,light aircraft - single turboprop engine, L
CNJ, n/a,Cessna,Citation, L
CNT, n/a,Cessna,light aircraft - twin turboprop engines, L
CR1, CRJ1,Canadair,Regional Jet 100, M
CR2, CRJ2,Canadair,Regional Jet 200, M
CR7, CRJ7,Canadair,Regional Jet 700, M
CR9, CRJ9,Canadair,Regional Jet 900, M
CRJ, n/a,Canadair,Regional Jet, M
CRV, S210,Aerospatiale (Sud Aviation),Se.210 Caravelle, M
CS2, C212,CASA/IPTN,212 Aviocar, M
CS5, CN35,CASA/IPTN,CN-235, M
CV4, CVLP,Convair,CV-440 Metropolitan pax, M
CV5, CVLT,Convair,CV-580 pax, M
CVF, n/a,Convair,CV-240 / 440 / 580 / 600 / 640 Freighter, M
CVR, n/a,Convair,CV-240 / 440 / 580 / 600 / 640 pax, M
CVV, CVLP,Convair,CV-240 Freighter, M
CVX, CVLP,Convair,CV-440 Freighter, M
CVY, CVLT,Convair,CV-580 / 600 / 640 Freighter, M
CWC, C46,Curtiss,C-46 Commando, M
D10, DC10,Douglas,DC-10 pax, H
D11, DC10,Douglas,DC-10-10/15 pax, H
D1C, DC10,Douglas,DC-10-30/40 pax, H
D1F, DC10,Douglas,DC-10 all Freighters, H
D1M, DC10,Douglas,DC-10 all Combi models, H
D1X, DC10,Douglas,DC-10-10 Freighter, H
D1Y, DC10,Douglas,DC-10-30 / 40 Freighters, H
D28, D228,Fairchild/Dornier,Do.228, L
D38, D328,Fairchild/Dornier,Do.328, M
D3F, DC3,Douglas,DC-3 Freighter, M
D6F, DC6,Douglas,DC-6A/B/C Freighter, M
D8F, n/a,Douglas,DC-8 all Freighters, H
D8L, DC86,Douglas,DC-8-62 pax, H
D8M, n/a,Douglas,DC-8 all Combi models, H
D8Q, DC87,Douglas,DC-8-72 pax, H
D8T, DC85,Douglas,DC-8-50 Freighter, H
D8X, n/a,Douglas,DC-8-61 / 62 / 63 Freighters, H
D8Y, DC87,Douglas,DC-8-71 / 72 / 73 Freighters, H
D91, DC91,Douglas,DC-9-10 pax, M
D92, DC92,Douglas,DC-9-20 pax, M
D93, DC93,Douglas,DC-9-30 pax, M
D94, DC94,Douglas,DC-9-40 pax, M
D95, DC95,Douglas,DC-9-50 pax, M
D9C, DC93,Douglas,DC-9-30 Freighter, M
D9F, DC94,Douglas,DC-9-40 Freighter, M
D9F, n/a,Douglas,DC-9 all Freighters, M
D9X, DC91,Douglas,DC-9-10 Freighter, M
DC3, DC3,Douglas,DC-3 pax, M
DC6, DC6,Douglas,DC6A/B pax, M
DC8, n/a,Douglas,DC-8 all pax models, H
DC9, DC9,Douglas,DC-9 all pax models, M
DF2, n/a,Dassault,Breguet Mystere Falcon 10 / 100 / 20 / 200 / 2000, M
DF3, n/a,Dassault,Breguet Mystere Falcon 50 / 900, M
DFL, n/a,Dassault,Breguet Mystere Falcon, M
DH1, DH8A,De Havilland Canada,DHC-8-100 Dash 8 / 8Q, M
DH2, DH8B,De Havilland Canada,DHC-8-200 Dash 8 / 8Q, M
DH3, DH8C,De Havilland Canada,DHC-8-300 Dash 8 / 8Q, M
DH4, DH8D,De Havilland Canada,DHC-8-400 Dash 8Q, M
DH7, DHC7,De Havilland Canada,DHC-7 Dash 7, M
DH8, n/a,De Havilland Canada,DHC-8 Dash 8 all models, M
DHB, n/a,De Havilland Canada,DHC-2 Beaver / Turbo Beaver, L
DHC, DHC4,De Havilland Canada,DHC-4 Caribou, M
DHD, DOVE,De Havilland,DH.104 Dove, L
DHH, HERN,De Havilland,DH.114 Heron, L
DHL, DHC3,De Havilland Canada,DHC-3 Turbo Otter, L
DHO, DHC3,De Havilland Canada,DHC-3 Otter / Turbo Otter, L
DHP, DHC2,De Havilland Canada,DHC-2 Beaver, L
DHR, DH2T,De Havilland Canada,DHC-2 Turbo-Beaver, L
DHS, DHC3,De Havilland Canada,DHC-3 Otter, L
DHT, DHC6,De Havilland Canada,DHC-6 Twin Otter, L
E70, E170,Embraer,170, M
E90, E190,Embraer,190, M
EM2, E120,Embraer,EMB.120 Brasilia, L
EMB, E110,Embraer,EMB.110 Bandeirante, M
EMJ,,Embraer,170/190, M
ER3, E135,Embraer,RJ135, M
ER4, E145,Embraer,RJ145 Amazon, M
ERD,,Embraer,RJ140, M
ERJ, n/a,Embraer,RJ135 / RJ140 / RJ145, M
F21, F28,Fokker,F.28 Fellowship 1000, M
F22, F28,Fokker,F.28 Fellowship 2000, M
F23, F28,Fokker,F.28 Fellowship 3000, M
F24, F28,Fokker,F.28 Fellowship 4000, M
F27, F27,Fokker,F.27 Friendship / Fairchild F.27, M
F28, F28,Fokker,F.28 Fellowship, M
F50, F50,Fokker,50, M
F70, F70,Fokker,70, M
FA7, n/a,Fairchild/Dornier,728JET, M
FK7, F27,Fairchild,FH.227, M
FRJ, J328,Fairchild/Dornier,328JET, M
GRG, G21,Grumman,G.21 Goose, L
GRJ, n/a,Gulfstream Aerospace,G-1159 Gulfstream II / III / IV / V, M
GRM, G73T,Grumman,G.73 Turbo Mallard, L
GRS, G159,Gulfstream Aerospace,G-159 Gulfstream I, M
H25, n/a,Hawker Siddeley,HS.125,
H25, n/a,British Aerospace,125, M
HEC, COUC,Helio,H-250 Courier / H-295 / 385 Super Courier, L
HS7, A748,Hawker,Siddeley HS.748, M
I14, I114,Ilyushin,IL114, M
I93, IL96,Ilyushin,IL96-300 pax, H
I9F, IL96,Ilyushin,IL96 Freighters, H
I9M, IL96,Ilyushin,IL96M pax, H
I9X, IL96,Ilyushin,IL96-300 Freighter, H
I9Y, IL96,Ilyushin,IL96T Freighter, H
IL6, IL62,Ilyushin,IL62, H
IL7, IL76,Ilyushin,IL76, H
IL8, IL18,Ilyushin,IL18, M
IL9, IL96,Ilyushin,IL96 pax, H
ILW, IL86,Ilyushin,IL86, H
J31, JS31,British Aerospace,Jetstream 31, L
J32, JS32,British Aerospace,Jetstream 32, L
J41, JS41,British Aerospace,Jetstream 41, M
JST, n/a,British Aerospace,Jetstream 31 / 32 / 41, L/M
JU5, JU52,Junkers,Ju52/3M, M
L10, L101,Lockheed,L-1011 Tristar pax, H
L11, L101,Lockheed,L-1011 1 / 50 / 100 / 150 / 200 / 250 Tristar pax, H
L15, L101,Lockheed,L-1011 500 Tristar pax, H
L1F, L101,Lockheed,L-1011 Tristar Freighter, H
L49, CONI,Lockheed,L-1049 Super Constellation, M
L4T, L410,LET,410, L
LOE, L188,Lockheed,L-188 Electra pax, M
LOF, L188,Lockheed,L-188 Electra Freighter, M
LOH, C130,Lockheed,L-182 / 282 / 382 (L-100) Hercules, M
LOM, L188,Lockheed,L-188 Electra Mixed Configuration, M
M11, MD11,McDonnell Douglas,MD11 pax, H
M1F, MD11,McDonnell Douglas,MD11 Freighter, H
M1M, MD11,McDonnell Douglas,MD11 Mixed Configuration, H
M80, MD80,McDonnell Douglas,MD80, M
M81, MD81,McDonnell Douglas,MD81, M
M82, MD82,McDonnell Douglas,MD82, M
M83, MD83,McDonnell Douglas,MD83, M
M87, MD87,McDonnell Douglas,MD87, M
M88, MD88,McDonnell Douglas,MD88, M
M90, MD90,McDonnell Douglas,MD90, M
MBH, B105,Eurocopter,Bo.105, n/a
MD9, EXPL,MD Helicopters,MD900 Explorer, n/a
MIH,MI8,Mil,Mi-9,M
MIH,MI8,Mil,Mi-8,M
MIH,MI8,Mil,Mi-17,M
MIH,MI8,Mil,Mi-19,M
MU2, MU2,Mitsubishi,Mu-2, L
ND2, N262,Aerospatiale,Nord 262, M
NDC, S601,Aerospatiale,SN.601 Corvette, L
NDE, n/a,Eurocopter,AS350 Ecureuil / AS355 Ecureuil 2, n/a
NDH, S65C,Eurocopter,SA365C / SA365N Dauphin 2, n/a
PA1, n/a,Piper,light aircraft - single piston engine, L
PA2, n/a,Piper,light aircraft - twin piston engines, L
PAG, n/a,Piper,light aircraft, L
PAT, n/a,Piper,light aircraft - twin turboprop engines, L
PL2, PC12,Pilatus,PC-12, L
PL6, PC6T,Pilatus,PC-6 Turbo Porter, L
PN6, P68,Partenavia,P.68, L
S20, SB20,Saab,2000, M
S58, S58T,Sikorsky,S-58T,L
S61, S61,Sikorsky,S-61,M
S76, S76,Sikorsky,S-76,L
SF3, SF34,Saab,SF340A/B, M
SH3, SH33,Shorts,SD.330, M
SH6, SH36,Shorts,SD.360, M
SHB, BELF,Shorts,SC-5 Belfast, M
SHS, SC7,Shorts,SC-7 Skyvan, L
SSC, CONC,Aerospatiale/British Aerospace,Concorde, H
SWM, n/a,Fairchild/Swearingen,SA26 / SA226 / SA227 Metro / Merlin / Expediter, L
T20, T204,Tupolev,Tu-204 / Tu-214, M
TU3, T134,Tupolev,Tu134, M
TU5, T154,Tupolev,Tu154, M
VCV, VISC,Vickers,Viscount, M
WWP, WW24,Israel Aircraft Industries,1124 Westwind, M
YK2, YK42,Yakovlev,Yak 42, M
YK4, YK40,Yakovlev,Yak 40, M
YN2, Y12,Harbin,Yunshuji Y12, M
YN7, AN24,Xian,Yunshuji Y7, M
YS1, YS11,NAMC,YS-11, M
