<?xml version="1.0"?>
<!DOCTYPE svg PUBLIC "-//W3C//DTD SVG 1.1//EN" "http://www.w3.org/Graphics/SVG/1.1/DTD/svg11.dtd">
<svg xmlns="http://www.w3.org/2000/svg" xmlns:xl="http://www.w3.org/1999/xlink" version="1.1" viewBox="-5 0 126 148" width="126pt" height="148pt"><metadata xmlns:dc="http://purl.org/dc/elements/1.1/"><dc:date>2015-03-10 11:08Z</dc:date><!-- Produced by OmniGraffle Professional 5.4.4 --></metadata><defs><font-face font-family="Calibri" font-size="30" panose-1="2 15 7 2 3 4 4 3 2 4" units-per-em="1000" underline-position="-87.402344" underline-thickness="90.82031" slope="0" x-height="468.74997" cap-height="631.83594" ascent="952.1484" descent="-268.55469" font-weight="bold"><font-face-src><font-face-name name="Calibri-Bold"/></font-face-src></font-face></defs><g stroke="none" stroke-opacity="1" stroke-dasharray="none" fill="none" fill-opacity="1"><title>Canevas 1</title><g><title>Calque 1</title><rect x="7" y="12" width="102" height="124" fill="white"/><rect x="7" y="12" width="102" height="124" stroke="black" stroke-linecap="round" stroke-linejoin="round" stroke-width="3"/><text transform="translate(12 18.5)" fill="black"><tspan font-family="Calibri" font-size="30" font-weight="bold" x="24.972168" y="29" textLength="16.625977">fi</tspan><tspan font-family="Calibri" font-size="30" font-weight="bold" x="41.598145" y="29" textLength="10.6640625">r</tspan><tspan font-family="Calibri" font-size="30" font-weight="bold" x="51.925293" y="29" textLength="15.102539">e</tspan><tspan font-family="Calibri" font-size="30" font-weight="bold" x="13.9418945" y="66" textLength="64.11621">truck</tspan><tspan font-family="Calibri" font-size="30" font-weight="bold" x="13.810059" y="103" textLength="9.4921875">f</tspan><tspan font-family="Calibri" font-size="30" font-weight="bold" x="22.848145" y="103" textLength="55.341797">oam</tspan></text></g></g></svg>
