<?xml version="1.0" encoding="iso-8859-1"?>
<!-- Generator: Adobe Illustrator 13.0.0, SVG Export Plug-In . SVG Version: 6.00 Build 14948)  -->
<svg version="1.2" baseProfile="tiny" id="Calque_1"
	 xmlns="http://www.w3.org/2000/svg" xmlns:xlink="http://www.w3.org/1999/xlink" x="0px" y="0px" width="29.762px"
	 height="29.762px" viewBox="0 0 29.762 29.762" xml:space="preserve">
<g id="Plane_crash">
	<g>
		<g>
			
				<rect x="4.859" y="4.859" transform="matrix(0.7071 0.7071 -0.7071 0.7071 14.8817 -6.1641)" fill-rule="evenodd" fill="#FFDA00" width="20.044" height="20.044"/>
			<path fill="#FF0000" d="M0,14.883L14.881,0l14.881,14.883l-0.354,0.353l-0.353-0.355l0.353,0.355L14.881,29.762L0,14.883
				L0,14.883z M1.416,14.883l13.465,13.465l13.466-13.466L14.881,1.416L1.416,14.883L1.416,14.883z"/>
		</g>
	</g>
	<path id="Symbol_90_" d="M22.153,14.795c-0.108,0.053-0.215,0.108-0.324,0.159c-0.356,0.167-0.718,0.327-1.082,0.48
		c-1.038,0.438-2.09,0.848-3.075,1.382c-0.358,0.193-0.707,0.405-1.042,0.641v0c-0.072,0.05-0.148,0.093-0.219,0.146
		c-0.021,1.581,0.104,3.197-0.338,4.735c-0.158,0.499-0.356,1.026-0.773,1.37c-0.167,0.12-0.336,0.193-0.474,0.208v0.002
		c-0.006,0.001-0.014,0-0.021,0c-0.008,0.001-0.015,0.001-0.021,0.001s-0.014,0-0.021-0.001c-0.007,0-0.014,0.001-0.021,0v-0.002
		c-0.138-0.015-0.307-0.088-0.474-0.208c-0.417-0.343-0.615-0.871-0.773-1.37c-0.441-1.538-0.316-3.154-0.338-4.735
		c-0.07-0.053-0.146-0.095-0.219-0.146v0c-0.335-0.235-0.684-0.447-1.042-0.641c-0.985-0.534-2.037-0.944-3.075-1.382
		c-0.364-0.153-0.726-0.313-1.082-0.48c-0.109-0.051-0.216-0.106-0.324-0.159c-0.427-0.211-0.847-0.434-1.247-0.694
		c0.1-0.495,0.425-1.001,0.96-1.071c0.822-0.04,1.6,0.292,2.396,0.432c0.64,0.116,1.276,0.276,1.918,0.4l0.001,0
		c0.64,0.124,1.283,0.212,1.938,0.185c0.037-0.273,0.078-0.598,0.119-0.935c0.123-1.013,0.245-2.147,0.254-2.382
		c0.002-0.181,0.021-0.211-0.156-0.406c-0.192-0.229-0.419-0.405-0.652-0.573c-0.435-0.311-0.903-0.585-1.287-1.055
		c0,0-0.01-0.554,0.038-0.905c0.006-0.05,0.014-0.096,0.023-0.136C12.473,7.832,13.298,8,13.994,8.157
		c0.082-0.468,0.162-0.748,0.307-1.171c0.131-0.188,0.273-0.231,0.483-0.226c0.21-0.006,0.353,0.038,0.483,0.226
		c0.145,0.423,0.225,0.703,0.307,1.171C16.271,8,17.096,7.832,17.848,7.655c0.01,0.04,0.018,0.085,0.023,0.136
		c0.048,0.351,0.038,0.905,0.038,0.905c-0.384,0.47-0.853,0.744-1.287,1.055c-0.233,0.168-0.46,0.344-0.652,0.573
		c-0.178,0.195-0.158,0.225-0.156,0.406c0.009,0.235,0.131,1.369,0.254,2.382c0.041,0.337,0.082,0.662,0.119,0.935
		c0.655,0.027,1.299-0.061,1.938-0.185l0.001,0c0.642-0.124,1.278-0.284,1.918-0.4c0.797-0.141,1.574-0.472,2.396-0.432
		c0.535,0.07,0.86,0.576,0.96,1.071C23,14.361,22.58,14.584,22.153,14.795z"/>
</g>
</svg>
