<?xml version="1.0" encoding="iso-8859-1"?>
<!-- Generator: Adobe Illustrator 13.0.0, SVG Export Plug-In . SVG Version: 6.00 Build 14948)  -->
<svg version="1.2" baseProfile="tiny" id="Calque_1"
	 xmlns="http://www.w3.org/2000/svg" xmlns:xlink="http://www.w3.org/1999/xlink" x="0px" y="0px" width="29.762px"
	 height="29.762px" viewBox="0 0 29.762 29.762" xml:space="preserve">
<g id="Bomb">
	<g>
		<g>
			
				<rect x="4.859" y="4.858" transform="matrix(0.7071 -0.7071 0.7071 0.7071 -6.1634 14.8814)" fill-rule="evenodd" fill="#FFDA00" width="20.044" height="20.044"/>
			<path fill="#FF0000" d="M0,14.878L14.881,0l14.526,14.525l-0.353,0.355l0.353-0.355l0.354,0.353L14.881,29.762L0,14.878L0,14.878
				z M1.416,14.878l13.465,13.468l13.466-13.467L14.881,1.413L1.416,14.878L1.416,14.878z"/>
		</g>
	</g>
	<path id="Symbol_92_" d="M16.869,12.296c0.049-0.54,0.183-1.077,0.158-1.62c-0.136-0.393-0.598-0.467-0.921-0.652
		c0.181-0.286,0.456-0.664,0.845-0.479c0.144,0.062,0.271,0.149,0.405,0.232c0.242,0.122,0.536-0.154,0.585-0.233
		c0.049-0.083,0.188-0.491-0.125-0.795c-0.024-0.025-0.058-0.056-0.087-0.084c-0.539-0.279-1.164-0.401-1.717-0.094
		c-0.539,0.226-0.813,0.778-1.031,1.285c-0.419,0.068-0.928,0.074-1.215,0.428c-0.138,0.514-0.143,1.052-0.228,1.576
		c-2.282,0.401-4.178,2.383-4.416,4.698c-0.35,2.541,1.364,5.16,3.833,5.853c2.188,0.688,4.736-0.206,6.025-2.1
		c0.979-1.401,1.257-3.286,0.655-4.897C19.18,14.058,18.15,12.925,16.869,12.296z M14.777,11c0.163-0.009,0.328,0.002,0.489,0.021
		l-0.119,0.807c-0.155-0.019-0.311-0.046-0.467-0.06C14.714,11.512,14.744,11.255,14.777,11z M17.756,17.486
		c-0.263,0.245-0.775,0.14-0.863-0.229c-0.093-0.469-0.047-0.989-0.353-1.39c-0.283-0.456-0.77-0.704-1.249-0.899
		c-0.325-0.097-0.493-0.515-0.304-0.805c0.133-0.284,0.473-0.32,0.739-0.23c1.126,0.359,2.056,1.354,2.198,2.548
		C17.949,16.816,18.077,17.244,17.756,17.486z M18.825,8.555c0.421-0.387,0.433-0.385,0.794-0.828
		c0.195-0.266-0.066-0.666-0.378-0.654c-0.279,0.029-0.438,0.284-0.625,0.458c-0.265,0.291-0.165,0.146-0.396,0.467
		C18.016,8.349,18.5,8.819,18.825,8.555z M20.941,8.83c-0.56-0.004-1.119,0.022-1.681,0.028c-0.181,0.008-0.393-0.001-0.515,0.159
		c-0.241,0.241-0.054,0.734,0.305,0.711c0.592,0.008,1.186-0.005,1.776-0.04C21.278,9.642,21.287,9.032,20.941,8.83z M18.946,11.788
		c0.359,0.228,0.836-0.264,0.581-0.606c-0.29-0.451-0.514-0.983-0.922-1.333c-0.359-0.163-0.742,0.301-0.528,0.625
		C18.354,10.918,18.6,11.395,18.946,11.788z"/>
</g>
</svg>
