<?xml version="1.0"?>
<!DOCTYPE svg PUBLIC "-//W3C//DTD SVG 1.1//EN" "http://www.w3.org/Graphics/SVG/1.1/DTD/svg11.dtd">
<svg xmlns="http://www.w3.org/2000/svg" xmlns:xl="http://www.w3.org/1999/xlink" version="1.1" viewBox="-5 0 173 151" width="173pt" height="151pt"><metadata xmlns:dc="http://purl.org/dc/elements/1.1/"><dc:date>2015-03-10 17:15Z</dc:date><!-- Produced by OmniGraffle Professional 5.4.4 --></metadata><defs><font-face font-family="Calibri" font-size="30" panose-1="2 15 7 2 3 4 4 3 2 4" units-per-em="1000" underline-position="-87.402344" underline-thickness="90.82031" slope="0" x-height="468.74997" cap-height="631.83594" ascent="952.1484" descent="-268.55469" font-weight="bold"><font-face-src><font-face-name name="Calibri-Bold"/></font-face-src></font-face></defs><g stroke="none" stroke-opacity="1" stroke-dasharray="none" fill="none" fill-opacity="1"><title>Canevas 1</title><g><title>Calque 1</title><rect x="7" y="12" width="149" height="127" fill="white"/><rect x="7" y="12" width="149" height="127" stroke="black" stroke-linecap="round" stroke-linejoin="round" stroke-width="3"/><text transform="translate(12 20)" fill="black"><tspan font-family="Calibri" font-size="30" font-weight="bold" x="28.843262" y="29" textLength="41.61621">Thr</tspan><tspan font-family="Calibri" font-size="30" font-weight="bold" x="70.12256" y="29" textLength="29.91211">ea</tspan><tspan font-family="Calibri" font-size="30" font-weight="bold" x="99.75635" y="29" textLength="10.4003906">t</tspan><tspan font-family="Calibri" font-size="30" font-weight="bold" x="27.671387" y="66" textLength="42.83203">haz</tspan><tspan font-family="Calibri" font-size="30" font-weight="bold" x="70.12256" y="66" textLength="25.473633">ar</tspan><tspan font-family="Calibri" font-size="30" font-weight="bold" x="95.22998" y="66" textLength="16.098633">d</tspan><tspan font-family="Calibri" font-size="30" font-weight="bold" x="13.887207" y="103" textLength="9.345703">(</tspan><tspan font-family="Calibri" font-size="30" font-weight="bold" x="23.379395" y="103" textLength="14.223633">g</tspan><tspan font-family="Calibri" font-size="30" font-weight="bold" x="37.280762" y="103" textLength="56.967773">ener</tspan><tspan font-family="Calibri" font-size="30" font-weight="bold" x="93.589355" y="103" textLength="31.523438">al)</tspan></text></g></g></svg>
