<?xml version="1.0" encoding="iso-8859-1"?>
<!-- Generator: Adobe Illustrator 13.0.0, SVG Export Plug-In . SVG Version: 6.00 Build 14948)  -->
<svg version="1.2" baseProfile="tiny" id="Calque_1"
	 xmlns="http://www.w3.org/2000/svg" xmlns:xlink="http://www.w3.org/1999/xlink" x="0px" y="0px" width="25px" height="25px"
	 viewBox="0 0 25 25" xml:space="preserve">
<g id="Medical_services">
	<g id="XMLID_3_">
		<path fill="#070707" d="M0,12.5C0.001,5.596,5.598,0,12.501,0l0,0C19.404,0,25,5.596,25,12.5l0,0
			c0,6.902-5.596,12.498-12.499,12.5l0,0C5.598,24.998,0.001,19.402,0,12.5L0,12.5z"/>
		<path fill="#FFFFFF" d="M1,12.5c0.012,6.353,5.15,11.487,11.501,11.499l0,0C18.852,23.987,23.989,18.853,24,12.5l0,0
			C23.989,6.148,18.852,1.011,12.501,0.999l0,0C6.15,1.011,1.013,6.148,1,12.5L1,12.5z"/>
	</g>
	<path d="M12.337,22.324c0.098,0.1,0.206,0.189,0.315,0.277c-0.015,0.15-0.023,0.305-0.084,0.445
		c-0.015,0.037-0.044,0.065-0.077,0.088c-0.047-0.045-0.078-0.102-0.094-0.162C12.337,22.762,12.337,22.541,12.337,22.324
		 M12.312,20.122c0.16,0.11,0.283,0.272,0.334,0.461c0.045,0.123,0.026,0.255,0.027,0.383c-0.002,0.331-0.008,0.66-0.014,0.99
		c-0.158-0.271-0.293-0.563-0.336-0.878C12.315,20.76,12.314,20.44,12.312,20.122 M12.052,19.92c0.029,0.02,0.057,0.041,0.084,0.063
		c-0.002,0.3,0.015,0.598,0,0.895c-0.006,0.359,0.123,0.706,0.289,1.02c0.116,0.221,0.261,0.423,0.409,0.621
		c-0.274-0.198-0.52-0.44-0.703-0.726c-0.243-0.381-0.374-0.841-0.323-1.292C11.828,20.287,11.927,20.09,12.052,19.92 M12.282,17.92
		c0.15,0.096,0.291,0.205,0.422,0.323c-0.002,0.402-0.009,0.804-0.013,1.206c-0.132-0.104-0.263-0.209-0.393-0.314
		C12.294,18.729,12.288,18.325,12.282,17.92 M11.389,18.438c0.062-0.31,0.282-0.557,0.522-0.746c0.064,0.04,0.131,0.079,0.196,0.117
		c-0.001,0.12,0.007,0.24,0.003,0.36c-0.027,0.056-0.082,0.095-0.118,0.146c-0.104,0.136-0.2,0.305-0.163,0.482
		c0.049,0.188,0.197,0.324,0.336,0.449c0.177,0.149,0.359,0.293,0.543,0.436c0.266,0.209,0.465,0.52,0.488,0.861
		c0.039,0.457-0.106,0.918-0.359,1.296c0.004-0.247-0.002-0.495,0.013-0.741c0.035-0.277,0.004-0.573-0.146-0.814
		c-0.114-0.201-0.318-0.322-0.492-0.466c-0.229-0.173-0.459-0.356-0.625-0.597C11.427,18.999,11.329,18.714,11.389,18.438
		 M12.25,15.204c0.167,0.062,0.331,0.134,0.49,0.216c-0.005,0.608-0.016,1.218-0.022,1.826c-0.153-0.096-0.302-0.198-0.445-0.307
		C12.261,16.361,12.257,15.783,12.25,15.204 M10.991,15.771c0.084-0.341,0.333-0.611,0.609-0.813
		c0.156,0.066,0.314,0.127,0.475,0.184c0,0.061,0.001,0.121,0.001,0.182c-0.213,0.129-0.425,0.291-0.528,0.525
		c-0.084,0.188-0.06,0.407,0.033,0.586c0.131,0.255,0.349,0.451,0.568,0.629c0.219,0.172,0.455,0.32,0.693,0.462
		c0.266,0.161,0.516,0.366,0.668,0.642c0.121,0.215,0.152,0.481,0.073,0.717c-0.107,0.326-0.353,0.585-0.616,0.793
		c-0.034-0.034-0.078-0.063-0.104-0.104c-0.002-0.118,0.004-0.237,0.006-0.356c0.128-0.119,0.264-0.254,0.303-0.432
		c0.029-0.18-0.07-0.348-0.178-0.484c-0.254-0.309-0.595-0.527-0.938-0.725c-0.354-0.215-0.675-0.503-0.891-0.861
		C10.999,16.436,10.909,16.094,10.991,15.771 M12.214,12.519c0.188,0.016,0.377,0.022,0.564,0.043
		c-0.013,0.626-0.012,1.253-0.026,1.879c-0.173-0.065-0.345-0.133-0.516-0.202C12.23,13.666,12.221,13.092,12.214,12.519
		 M10.167,12.777c0.094-0.186,0.241-0.34,0.407-0.465c0.361,0.092,0.733,0.134,1.104,0.164c-0.262,0.081-0.52,0.217-0.683,0.444
		c-0.117,0.159-0.164,0.37-0.105,0.559c0.068,0.225,0.244,0.398,0.434,0.525c0.203,0.138,0.434,0.225,0.658,0.319
		c0.264,0.11,0.529,0.213,0.796,0.315c0.341,0.124,0.663,0.309,0.911,0.574c0.189,0.199,0.329,0.456,0.347,0.732
		c0.022,0.292-0.081,0.58-0.236,0.824c-0.18,0.282-0.431,0.514-0.7,0.709c-0.07-0.04-0.136-0.088-0.207-0.129
		c0.002-0.108,0.002-0.216,0.004-0.324c0.223-0.179,0.438-0.383,0.558-0.646c0.081-0.178,0.086-0.394-0.007-0.568
		c-0.124-0.238-0.353-0.398-0.582-0.527c-0.373-0.209-0.794-0.311-1.185-0.482c-0.407-0.173-0.803-0.39-1.13-0.69
		c-0.213-0.198-0.402-0.444-0.465-0.735C10.04,13.174,10.072,12.96,10.167,12.777 M13.883,9.833c0.355-0.064,0.717-0.014,1.071,0.03
		c0.39,0.024,0.789,0.063,1.148,0.227c0.17,0.081,0.344,0.209,0.391,0.402c0.047,0.208-0.057,0.412-0.179,0.573
		c-0.234,0.299-0.556,0.514-0.888,0.69c-0.311,0.158-0.637,0.283-0.973,0.367c-0.363-0.235-0.779-0.374-1.195-0.476
		c0.556-0.024,1.115-0.084,1.648-0.251c0.278-0.088,0.555-0.195,0.799-0.36c0.104-0.073,0.213-0.16,0.252-0.286
		c0.023-0.105,0.01-0.232-0.078-0.304c-0.09-0.074-0.215-0.083-0.326-0.088c-0.203-0.004-0.408,0.006-0.61,0.03
		c-0.161,0.019-0.314,0.079-0.456,0.158c-0.127,0.063-0.25,0.151-0.398,0.154c-0.241,0.012-0.495-0.032-0.701-0.162
		c-0.092-0.048-0.044-0.163-0.011-0.234C13.488,10.1,13.662,9.916,13.883,9.833 M10.022,9.865c0.28-0.031,0.561-0.075,0.844-0.059
		c0.121,0.009,0.25,0.006,0.355,0.074c0.173,0.104,0.319,0.258,0.408,0.44c0.03,0.068,0.066,0.174-0.018,0.218
		c-0.2,0.126-0.445,0.169-0.68,0.164c-0.165,0.002-0.303-0.099-0.445-0.168c-0.139-0.076-0.289-0.131-0.445-0.148
		c-0.205-0.022-0.412-0.033-0.618-0.027c-0.104,0.005-0.22,0.017-0.304,0.086c-0.088,0.072-0.103,0.2-0.079,0.305
		c0.042,0.131,0.157,0.22,0.266,0.296c0.239,0.159,0.512,0.263,0.784,0.35c0.502,0.153,1.027,0.227,1.551,0.248
		c0.291,0.012,0.582,0.008,0.871,0.046c0.494,0.062,0.984,0.174,1.444,0.368c0.28,0.122,0.555,0.279,0.745,0.521
		c0.166,0.201,0.264,0.466,0.223,0.728c-0.038,0.287-0.209,0.535-0.408,0.737c-0.312,0.312-0.699,0.534-1.098,0.716
		c-0.156-0.1-0.322-0.182-0.492-0.251c0-0.05,0-0.099,0-0.148c0.331-0.141,0.684-0.261,0.949-0.511
		c0.149-0.139,0.262-0.337,0.236-0.546c-0.026-0.234-0.194-0.423-0.379-0.555c-0.288-0.202-0.631-0.315-0.977-0.365
		c-0.497-0.037-0.995-0.071-1.49-0.124c-0.545-0.065-1.08-0.21-1.575-0.447c-0.346-0.167-0.679-0.375-0.938-0.664
		c-0.125-0.144-0.239-0.315-0.258-0.51c-0.014-0.126,0.032-0.254,0.116-0.346c0.117-0.131,0.279-0.21,0.441-0.268
		C9.364,9.919,9.695,9.883,10.022,9.865 M14.287,6.198c0.136-0.165,0.312-0.301,0.513-0.375c0.165-0.046,0.336,0.006,0.494,0.056
		c0.379,0.132,0.732,0.327,1.09,0.509c0.457,0.234,0.916,0.468,1.398,0.646c0.561,0.205,1.172,0.343,1.767,0.226
		c0.257-0.044,0.493-0.186,0.759-0.18c0.065-0.002,0.162,0.031,0.143,0.115c-0.032,0.182-0.168,0.324-0.297,0.446
		c-0.289,0.26-0.67,0.426-1.063,0.419c0.004,0.059,0.045,0.131-0.003,0.182c-0.065,0.064-0.157,0.084-0.243,0.101
		c-0.309,0.049-0.625,0.001-0.92-0.095c-0.008,0.128-0.018,0.268-0.105,0.37c-0.088,0.101-0.227,0.132-0.354,0.131
		c-0.186,0.002-0.364-0.048-0.538-0.104c-0.065,0.178-0.18,0.361-0.372,0.414c-0.275,0.079-0.543-0.05-0.807-0.112
		c-0.045,0.09-0.092,0.185-0.178,0.243c-0.12,0.085-0.277,0.086-0.416,0.06c-0.176-0.037-0.343-0.112-0.496-0.204
		c-0.034-0.021-0.072-0.034-0.109-0.046c-0.105,0.093-0.199,0.2-0.316,0.277c-0.129,0.083-0.291,0.077-0.438,0.058
		c-0.271-0.042-0.533-0.128-0.792-0.216c0.007-0.531,0.014-1.063,0.023-1.595c0.175,0.041,0.37,0.038,0.526-0.063
		c0.143-0.09,0.215-0.252,0.281-0.4C13.964,6.76,14.079,6.45,14.287,6.198 M9.222,6.081c0.25-0.115,0.506-0.238,0.781-0.272
		c0.189-0.029,0.361,0.081,0.506,0.189c0.309,0.242,0.468,0.611,0.613,0.962c0.076,0.172,0.143,0.366,0.301,0.483
		c0.154,0.115,0.361,0.123,0.544,0.081c0.007,0.533,0.019,1.064,0.022,1.596c-0.263,0.087-0.527,0.176-0.801,0.216
		c-0.142,0.017-0.298,0.02-0.423-0.06c-0.117-0.077-0.212-0.184-0.316-0.277c-0.087,0.024-0.158,0.081-0.239,0.119
		c-0.201,0.097-0.432,0.184-0.656,0.13c-0.15-0.034-0.246-0.167-0.303-0.3C8.987,9.009,8.719,9.138,8.444,9.059
		C8.251,9.006,8.136,8.823,8.071,8.645C7.823,8.721,7.546,8.804,7.294,8.702C7.116,8.627,7.078,8.418,7.073,8.248
		C6.765,8.348,6.431,8.397,6.108,8.333C6.026,8.311,5.919,8.287,5.888,8.197C5.89,8.15,5.9,8.105,5.909,8.06
		C5.495,8.067,5.094,7.883,4.801,7.598C4.69,7.484,4.576,7.355,4.55,7.194C4.53,7.121,4.608,7.081,4.669,7.08
		c0.264-0.017,0.502,0.125,0.754,0.173C5.927,7.36,6.45,7.279,6.935,7.128C7.739,6.879,8.468,6.447,9.222,6.081 M12.343,5.275
		c0.308-0.073,0.647,0.085,0.795,0.364c0.152,0.272,0.101,0.642-0.123,0.86c-0.041,0.042-0.089,0.078-0.137,0.113
		c-0.034,1.979-0.059,2.958-0.087,4.938c-0.195-0.03-0.392-0.054-0.589-0.064c-0.029-1.958-0.054-2.915-0.086-4.872
		c-0.215-0.137-0.357-0.383-0.349-0.639C11.767,5.646,12.021,5.339,12.343,5.275"/>
</g>
</svg>
