<?xml version="1.0" encoding="iso-8859-1"?>
<!-- Generator: Adobe Illustrator 13.0.0, SVG Export Plug-In . SVG Version: 6.00 Build 14948)  -->
<svg version="1.2" baseProfile="tiny" id="Calque_1"
	 xmlns="http://www.w3.org/2000/svg" xmlns:xlink="http://www.w3.org/1999/xlink" x="0px" y="0px" width="25px" height="25px"
	 viewBox="0 0 25 25" xml:space="preserve">
<g id="Media">
	<g>
		<path fill="#070707" d="M0,12.5C0.001,5.596,5.598,0,12.501,0l0,0C19.404,0,25,5.596,25,12.5l0,0
			c0,6.902-5.596,12.498-12.499,12.5l0,0C5.598,24.998,0.001,19.402,0,12.5L0,12.5z"/>
		<path fill="#FFFFFF" d="M1,12.5c0.012,6.353,5.15,11.487,11.501,11.499l0,0C18.852,23.987,23.989,18.853,24,12.5l0,0
			C23.989,6.148,18.852,1.011,12.501,0.999l0,0C6.15,1.011,1.013,6.148,1,12.5L1,12.5z"/>
	</g>
	<path d="M13.324,10.219c0.153-0.161,0.251-0.376,0.251-0.616c0-0.496-0.402-0.898-0.898-0.898c-0.01,0-0.018,0.005-0.027,0.005
		l-0.016-0.035l-0.016,0.042c-0.467,0.032-0.84,0.411-0.84,0.887c0,0.243,0.098,0.461,0.254,0.623l-3,7.733v0.001
		c0,0.001,0,0.001-0.001,0.001l-0.466,1.203c-0.1,0.259,0.026,0.547,0.285,0.647c0.059,0.022,0.12,0.034,0.181,0.034
		c0.2,0,0.39-0.121,0.466-0.319l0.288-0.742l2.382,0.916v0.955c0,0.274,0.225,0.499,0.501,0.499c0.274,0,0.498-0.225,0.498-0.499
		v-0.86l2.896-1.002l0.167,0.373c0.111,0.252,0.406,0.367,0.659,0.254s0.366-0.408,0.253-0.661L13.324,10.219z M12.167,18.629
		l-2.021-0.776l0.75-1.935l1.271,0.552V18.629z M12.167,15.381l-0.908-0.396l0.908-2.345V15.381z M13.166,12.313l1.206,2.698
		l-1.206,0.425V12.313z M13.166,18.737v-2.243l1.614-0.568l0.873,1.951L13.166,18.737z M15.331,9.603
		c0,0.464-0.118,0.897-0.328,1.278c-0.133,0.24-0.045,0.545,0.197,0.68c0.076,0.042,0.159,0.062,0.24,0.062
		c0.177,0,0.348-0.093,0.439-0.259c0.287-0.523,0.45-1.124,0.45-1.76c0-0.755-0.229-1.459-0.622-2.043
		c-0.157-0.228-0.467-0.289-0.695-0.132c-0.229,0.154-0.289,0.464-0.134,0.694C15.164,8.544,15.331,9.051,15.331,9.603z
		 M9.472,11.362c0.092,0.165,0.262,0.259,0.439,0.259c0.082,0,0.164-0.02,0.24-0.061c0.24-0.134,0.33-0.438,0.197-0.68
		c-0.209-0.38-0.327-0.813-0.327-1.277c0-0.551,0.167-1.06,0.454-1.485c0.154-0.229,0.093-0.539-0.135-0.693
		C10.11,7.27,9.8,7.329,9.647,7.559H9.646C9.253,8.141,9.021,8.847,9.021,9.603C9.021,10.238,9.186,10.84,9.472,11.362z
		 M17.208,6.743c-0.154-0.23-0.467-0.289-0.694-0.134c-0.229,0.155-0.289,0.464-0.135,0.694c0.442,0.658,0.7,1.445,0.7,2.3
		c0,0.719-0.184,1.393-0.506,1.979c-0.133,0.242-0.045,0.547,0.197,0.68c0.076,0.043,0.158,0.063,0.24,0.063
		c0.176,0,0.348-0.093,0.439-0.258h-0.002c0.402-0.731,0.633-1.574,0.631-2.463C18.081,8.545,17.757,7.56,17.208,6.743z
		 M8.779,11.583c-0.323-0.588-0.509-1.261-0.509-1.981c0-0.854,0.259-1.643,0.704-2.302c0.155-0.23,0.094-0.539-0.134-0.694
		C8.61,6.453,8.3,6.512,8.147,6.741H8.146C7.594,7.557,7.271,8.545,7.271,9.603c0,0.891,0.23,1.733,0.633,2.463
		c0.09,0.166,0.26,0.26,0.438,0.26c0.082,0,0.164-0.02,0.241-0.063C8.822,12.13,8.911,11.825,8.779,11.583z M19.118,5.261
		c-0.154-0.228-0.466-0.289-0.693-0.134c-0.229,0.155-0.289,0.466-0.135,0.694c0.729,1.08,1.152,2.378,1.154,3.782
		c-0.002,1.181-0.303,2.291-0.835,3.256c-0.134,0.242-0.044,0.547,0.198,0.68c0.075,0.042,0.158,0.063,0.239,0.063
		c0.177,0,0.348-0.094,0.438-0.26c0.611-1.11,0.959-2.385,0.959-3.739C20.444,7.996,19.954,6.501,19.118,5.261z M6.235,5.259
		C5.397,6.498,4.907,7.996,4.907,9.602c0,1.354,0.348,2.631,0.957,3.739c0.093,0.166,0.264,0.261,0.441,0.261
		c0.08,0,0.162-0.02,0.238-0.062c0.242-0.134,0.331-0.439,0.199-0.679c-0.533-0.968-0.836-2.076-0.836-3.259
		c0-1.403,0.428-2.702,1.157-3.784c0.154-0.228,0.093-0.539-0.134-0.693C6.7,4.971,6.39,5.029,6.235,5.259z"/>
</g>
</svg>
