<?xml version="1.0" encoding="utf-8"?>
<!-- Generator: Adobe Illustrator 15.1.0, SVG Export Plug-In . SVG Version: 6.00 Build 0)  -->
<!DOCTYPE svg PUBLIC "-//W3C//DTD SVG 1.1//EN" "http://www.w3.org/Graphics/SVG/1.1/DTD/svg11.dtd">
<svg version="1.1" id="Layer_1" xmlns="http://www.w3.org/2000/svg" xmlns:xlink="http://www.w3.org/1999/xlink" x="0px" y="0px"
	 width="600px" height="300px" viewBox="300 150 600 300" enable-background="new 300 150 600 300" xml:space="preserve">
<rect id="rect8993" x="300" y="150" fill="#fff" width="600" height="300"/>
<rect id="rect10449" x="300" y="150" fill="#282878" width="600" height="150"/>
<rect id="rect10447" x="300" y="375" fill="#FFCB05" width="600" height="75"/>
<g id="g3182">
	<path id="path3177" fill="#FFCB05" d="M410.7,232.5c-0.5,2.4-0.7,4.9-0.7,7.5c0,22.1,17.9,40,40,40s40-17.9,40-40
		c0-2.6-0.3-5.1-0.7-7.5C485.8,251,469.5,265,450,265S414.2,251,410.7,232.5z"/>
	<path id="path12639" fill="#FFCB05" d="M449.7,160c0.1,0.7,0.3,1,0.4,1.4c0.4,1.3,1.2,2.1,1.4,2.4c0.4,0.5,0.7,1.2,0.8,1.7
		c0.2,0.6,0.3,1.1,0.2,1.8c0,0.4-0.2,1.2-0.3,1.6c-0.1,0.5-0.1,1-0.2,1.4c0,0.5,0,0.9,0,1.3c0,0.5,0.1,0.8,0.4,1.3
		c0.3,0.6,0.5,0.9,0.9,1.4c0.1,0.2,1,1.6,1.1,2.3c0.2,0.8,0.1,1.3,0.1,2.2c-0.1,0.6-0.4,1.6-0.5,2.2c-0.1,0.4-0.3,0.8-0.4,1.3
		c-0.1,0.4-0.3,0.8-0.3,1.3c0,0.5,0.3,1,0.6,1.4c0.4,0.5,0.7,0.9,1.1,1.2c0.5-0.2,0.8-0.6,1.1-1c0.3-0.4,0.5-1,0.5-1.5
		c-0.1-0.4-0.1-0.9-0.2-1.3c-0.1-0.5-0.3-0.9-0.3-1.4c0-0.5,0-0.8,0.1-1.4s0.3-0.8,0.5-1.4c0.3-0.4,0.6-1.3,0.8-1.9
		c0.1-0.6,0.1-1.8-0.1-2.5c-0.1-0.6-1.1-1.1-1.1-2.4c0-0.4,0.4-1.1,0.7-1.4c0.2-0.3,1.4-1.5,1.4-1.4c0,0.4,0.1,1.1,0.3,1.3
		c0.4,0.4,0.8,0.9,1.1,1.3c0.3,0.3,0.5,0.9,0.6,1.2c0.2,0.4,0.3,0.7,0.3,1.5c0,0.5-0.1,1.9-0.3,2.5c-0.1,0.4-0.1,1,0.1,1.4
		c0.3,0.5,0.6,1,1,1.4c0.3,0.4,0.5,0.6,0.8,0.9c0.3,0.3,0.6,0.8,0.9,1.2c0.5,0.8,1.1,2,1.3,2.9c0.1,1,0.2,1.5,0.2,2.4
		c0,0.5-0.1,1.3-0.1,1.7c-0.2,1-0.4,1.3-0.5,1.7c-0.3,0.6-0.5,1.1-1,1.8c-0.3,0.3-1.8,1.5-2.4,1.9c-0.5,0.3-1.6,1-2.4,1.4
		c-1,0.3-2.4,0.6-2.9,0.7c-0.5,0.1-1.4,0.3-1.9,0.5c-0.5,0.3-1.6,1.5-1.9,1.6c-0.7,0.5-1.8,0.6-2.5,0.3c-0.4-0.2-1-1.2-1.4-1.5
		c-0.6-0.5-1.8-0.6-3.5-0.8c-0.7-0.1-1.3-0.2-1.9-0.4c-0.3,0-1.6-0.4-2-0.7c-0.5-0.2-1.6-0.8-2.3-1.4c-0.7-0.6-1.2-1.5-1.5-1.8
		c-0.2-0.3-1-2-1.1-2.7c-0.1-0.7-0.4-2.4-0.4-2.9c0-1,0-1.8,0.1-2.8c0.1-0.5,0.1-1.3,0.4-1.6c0.1-0.3,0.5-1.3,0.8-1.6
		c0.3-0.3,0.4-0.5,0.7-0.9c0.3-0.3,1-1,1.3-1.5c0.2-0.4,0.3-1.5,0.3-1.9c0-0.5-0.1-1.4-0.1-1.9c0-0.4,0.6-1.3,0.9-1.6
		c0.3-0.3,0.8-0.8,1.1-1.1c0.4-0.4,1-0.9,1.3-1.4c0.4-0.5,0.9-1.1,0.9-0.9c0.1,0.2,0.3,1.1,0.3,1.7c0.1,1.9-0.1,2.5-0.4,3
		c-0.3,0.5-0.6,0.7-0.7,1.3c0,0.6,0,0.9,0,1.3c0.1,0.5,0.5,1.1,0.8,1.5c0.3,0.4,0.8,0.8,1,1.4c0.1,0.2,0.4,1.1,0.4,2.1
		c0,0.4-0.2,1.1-0.3,1.5c-0.1,0.3-0.2,1.1-0.1,1.4c0.3,0.7,0.6,1,0.9,1.3c0.4,0.4,1,1,1.2,0.9c0.2-0.3,0.3-0.8,0.9-2.3
		c0.3-0.6,0.1-1.5,0-2.1c-0.1-0.4-0.8-2.3-0.9-2.9c-0.1-0.4-0.3-0.9-0.6-1.5c-0.4-1,0.1-2.1,0.3-2.5c0.2-0.5,0.8-1,1-1.3
		c0.4-0.3,1-1.1,1.2-1.6c0.3-0.8,0.3-1.2,0.3-1.7c0-0.6-0.2-1-0.4-1.5c-0.1-0.5-0.4-1-0.5-1.5c-0.1-0.5-0.2-0.9-0.4-1.4
		c-0.2-0.9,0.2-2.1,0.4-2.7c0.2-0.5,0.6-1.4,1-1.8C448.8,160.8,449.2,160.3,449.7,160z"/>
	<path id="path3171" fill="#FFCB05" d="M480,230c0,16.5-13.5,30-30,30s-30-13.5-30-30c0-16.6,13.5-30,30-30S480,213.4,480,230z"/>
</g>
</svg>
