<?xml version="1.0" encoding="iso-8859-1"?>
<!-- Generator: Adobe Illustrator 13.0.0, SVG Export Plug-In . SVG Version: 6.00 Build 14948)  -->
<svg version="1.2" baseProfile="tiny" id="Calque_1"
	 xmlns="http://www.w3.org/2000/svg" xmlns:xlink="http://www.w3.org/1999/xlink" x="0px" y="0px" width="24.998px"
	 height="24.999px" viewBox="0 0 24.998 24.999" xml:space="preserve">
<g id="Police">
	<g>
		<rect x="0.5" y="0.5" fill="#164ED8" width="24" height="24"/>
		<path fill="#FFFFFF" d="M0,0v24.999h24.998V0H0z M0.998,24.001V0.999h23L24,24.001H0.998z M2.222,5.804l0.557,1.393L12.5,3.309
			l9.721,3.887l0.557-1.393l-10.28-4.113L2.222,5.804z"/>
	</g>
	<path id="Symbol_42_" fill="#FFFFFF" d="M6.25,15.773c0.527,0.998,0.992,2.146,2.065,2.686c2.654,1.447,6.051,1.459,8.771,0.175
		c1.253-0.546,1.874-1.812,2.514-2.931C15.353,17.307,10.52,17.318,6.25,15.773z M16.395,9.563
		c-2.158-1.277-5.008-1.285-7.151,0.035c-1.705,0.991-3.564,1.666-5.301,2.588c0.679,1.019,1.351,2.076,2.287,2.885
		c1.921,0.667,3.993,0.676,6.004,0.77c2.413-0.016,4.892-0.027,7.21-0.754c0.988-0.766,1.62-1.886,2.288-2.924
		C19.975,11.248,18.105,10.569,16.395,9.563z M14.76,13.605c-0.048,0.141-0.125,0.271-0.235,0.37
		c-0.104,0.092-0.228,0.156-0.355,0.206c-0.239,0.096-0.492,0.151-0.74,0.221c-0.263,0.085-0.453,0.3-0.61,0.518
		c-0.145-0.23-0.35-0.441-0.616-0.521c-0.245-0.067-0.495-0.123-0.732-0.219c-0.135-0.056-0.267-0.125-0.369-0.23
		c-0.1-0.098-0.166-0.223-0.209-0.354c-0.075-0.234-0.109-0.492-0.036-0.732c0.059-0.205,0.183-0.383,0.264-0.578
		c0.073-0.174,0.065-0.371,0.012-0.549c-0.042-0.135-0.144-0.233-0.233-0.336c0.153-0.212,0.309-0.423,0.462-0.635
		c0.271,0.096,0.571,0.142,0.855,0.074c0.23-0.053,0.44-0.181,0.605-0.35c0.188,0.178,0.42,0.315,0.678,0.357
		c0.264,0.045,0.535-0.001,0.781-0.098c0.162,0.211,0.322,0.424,0.479,0.638c-0.07,0.083-0.148,0.161-0.199,0.26
		c-0.059,0.115-0.076,0.247-0.075,0.375c-0.003,0.088,0.018,0.175,0.05,0.257c0.086,0.211,0.222,0.4,0.275,0.625
		C14.873,13.136,14.835,13.381,14.76,13.605z"/>
</g>
</svg>
