<?xml version="1.0" encoding="iso-8859-1"?>
<!-- Generator: Adobe Illustrator 13.0.0, SVG Export Plug-In . SVG Version: 6.00 Build 14948)  -->
<svg version="1.2" baseProfile="tiny" id="Calque_1"
	 xmlns="http://www.w3.org/2000/svg" xmlns:xlink="http://www.w3.org/1999/xlink" x="0px" y="0px" width="32.165px"
	 height="25.733px" viewBox="0 0 32.165 25.733" xml:space="preserve">
<g id="Bomb_1_">
	<g>
		<path d="M0,0h32.165L16.632,24.917l-0.51,0.815L0,0L0,0z M16.122,24.602l0.508-0.32L16.122,24.602L16.122,24.602z"/>
		<polygon fill="#FFFFFF" points="16.12,23.468 30.001,1.199 2.167,1.199 16.12,23.468 		"/>
	</g>
	<path id="Symbol_73_" d="M18.306,6.766c0.049-0.54,0.183-1.077,0.158-1.62c-0.136-0.394-0.598-0.468-0.921-0.652
		c0.181-0.285,0.456-0.663,0.845-0.479c0.144,0.062,0.271,0.149,0.405,0.232c0.242,0.121,0.536-0.154,0.585-0.233
		c0.049-0.083,0.188-0.491-0.125-0.795c-0.024-0.024-0.058-0.056-0.087-0.084c-0.539-0.279-1.164-0.401-1.717-0.094
		c-0.539,0.226-0.813,0.777-1.031,1.285c-0.419,0.067-0.928,0.073-1.215,0.428c-0.138,0.514-0.143,1.052-0.228,1.576
		c-2.282,0.4-4.178,2.383-4.416,4.697c-0.35,2.541,1.364,5.16,3.833,5.853c2.188,0.688,4.736-0.205,6.025-2.1
		c0.979-1.401,1.257-3.285,0.655-4.896C20.616,8.527,19.587,7.395,18.306,6.766z M16.214,5.469c0.163-0.009,0.328,0.003,0.489,0.021
		l-0.119,0.808c-0.155-0.02-0.311-0.046-0.467-0.061C16.15,5.981,16.181,5.725,16.214,5.469z M19.192,11.955
		c-0.263,0.245-0.775,0.14-0.863-0.229c-0.093-0.469-0.047-0.989-0.353-1.39c-0.283-0.456-0.77-0.704-1.249-0.899
		c-0.325-0.098-0.493-0.515-0.304-0.805c0.133-0.284,0.473-0.32,0.739-0.23c1.126,0.359,2.056,1.354,2.198,2.549
		C19.386,11.285,19.514,11.714,19.192,11.955z M20.262,3.024c0.421-0.387,0.433-0.385,0.794-0.828
		c0.195-0.266-0.066-0.665-0.378-0.653c-0.279,0.029-0.438,0.284-0.625,0.458c-0.265,0.291-0.165,0.146-0.396,0.468
		C19.452,2.818,19.937,3.289,20.262,3.024z M22.378,3.299c-0.56-0.004-1.119,0.022-1.681,0.028
		c-0.181,0.008-0.393-0.002-0.515,0.159c-0.241,0.24-0.054,0.733,0.305,0.711c0.592,0.008,1.186-0.005,1.776-0.04
		C22.715,4.111,22.724,3.501,22.378,3.299z M20.383,6.257c0.359,0.229,0.836-0.264,0.581-0.605c-0.29-0.451-0.514-0.983-0.922-1.333
		C19.683,4.155,19.3,4.62,19.514,4.944C19.791,5.388,20.036,5.864,20.383,6.257z"/>
</g>
</svg>
