<?xml version="1.0" encoding="iso-8859-1"?>
<!-- Generator: Adobe Illustrator 13.0.0, SVG Export Plug-In . SVG Version: 6.00 Build 14948)  -->
<svg version="1.2" baseProfile="tiny" id="Calque_1"
	 xmlns="http://www.w3.org/2000/svg" xmlns:xlink="http://www.w3.org/1999/xlink" x="0px" y="0px" width="32.165px"
	 height="25.733px" viewBox="0 0 32.165 25.733" xml:space="preserve">
<g id="Earthquake_1_">
	<g>
		<path d="M0,0h32.165L16.632,24.917l-0.51,0.815L0,0L0,0z M16.122,24.602l0.508-0.32L16.122,24.602L16.122,24.602z"/>
		<polygon fill="#FFFFFF" points="16.12,23.468 30.001,1.199 2.167,1.199 16.12,23.468 		"/>
	</g>
	<path d="M27.421,1.279h-1.227c0.727,0.998,1.31,2.101,1.727,3.288l0.672-1.079C28.27,2.713,27.875,1.976,27.421,1.279z
		 M15.918,1.535c-4.014,0-7.263,3.251-7.266,7.263c0.002,3.216,2.102,5.924,4.999,6.878l-0.005,0.006l-0.96,2.225
		c-0.095-0.034,0.323,0.55,0.229,0.516l0.228-0.41l0.961-2.091l1.335-2.225l-0.91-1.883l1.247-1.983l0.358,1.447l2.434,1.84
		l-0.719,2.875l1.598,2.148l0.31-0.475l-0.001-0.001l0.004-0.004c0,0-0.018-0.134-0.087-0.106l-1.263-1.676l0.079-0.312
		c2.735-1.041,4.69-3.668,4.691-6.77C23.178,4.786,19.928,1.535,15.918,1.535z M16.593,10.979l-0.205-0.82
		c0.573-0.198,0.996-0.718,0.996-1.359c0-0.811-0.657-1.467-1.467-1.467c-0.811,0-1.467,0.656-1.467,1.467
		c0,0.491,0.251,0.913,0.623,1.179l-0.705,1.12c-0.747-0.503-1.258-1.331-1.26-2.3c0.002-1.55,1.259-2.806,2.808-2.808
		c1.551,0.002,2.806,1.258,2.809,2.808c-0.002,1.137-0.686,2.099-1.656,2.538L16.593,10.979z M18.807,14.292l0.345-1.381
		l-1.186-0.896c1.07-0.681,1.792-1.856,1.792-3.218c0-2.12-1.721-3.841-3.842-3.841c-2.119,0-3.84,1.721-3.84,3.841
		c0,1.475,0.838,2.741,2.058,3.385l0.72,1.487l-0.654,1.092c-2.6-0.751-4.507-3.122-4.512-5.964c0.006-3.44,2.788-6.223,6.23-6.229
		c3.438,0.007,6.224,2.789,6.229,6.229C22.143,11.191,20.783,13.248,18.807,14.292z M21.584,1.279
		c2.248,1.716,3.715,4.396,3.75,7.438l0.886-1.42c-0.34-2.352-1.463-4.441-3.091-6.018H21.584z M3.28,3.105L3.916,4.12
		c0.402-1.019,0.933-1.969,1.567-2.841H4.278C3.9,1.859,3.569,2.47,3.28,3.105z M10.099,1.279h-1.55
		c-1.496,1.448-2.57,3.328-2.998,5.449l0.841,1.341C6.611,5.296,8.012,2.872,10.099,1.279z"/>
</g>
</svg>
