<?xml version="1.0" encoding="iso-8859-1"?>
<!-- Generator: Adobe Illustrator 13.0.0, SVG Export Plug-In . SVG Version: 6.00 Build 14948)  -->
<svg version="1.2" baseProfile="tiny" id="Calque_1"
	 xmlns="http://www.w3.org/2000/svg" xmlns:xlink="http://www.w3.org/1999/xlink" x="0px" y="0px" width="32.165px"
	 height="25.733px" viewBox="0 0 32.165 25.733" xml:space="preserve">
<g id="Hurricane_1_">
	<g>
		<path d="M0,0h32.165L16.632,24.917l-0.51,0.815L0,0L0,0z M16.122,24.602l0.508-0.32L16.122,24.602L16.122,24.602z"/>
		<polygon fill="#FFFFFF" points="16.12,23.468 30.001,1.199 2.167,1.199 16.12,23.468 		"/>
	</g>
	<path id="Symbol_26_" d="M16.979,16.364l-0.313,0.75l0.813-0.688L16.979,16.364z M23.15,7.973c0.666-0.666,0.26-3.792,0.26-3.792
		s-1.268-0.524-3.76-0.874c-2.525-0.354-8.293,0.673-9.793,1.006C9.594,5.58,9.662,6.454,9.639,7.41
		c0.5,1.167,5.83,3.99,5.902,4.416c0.168,0.999-1.391,1.646-1.391,2.813s1.037,2.124,1.871,2.957c0.5-0.333-0.012-2.131,0.656-2.798
		c0.666-0.667,4.305-2.493,4.805-3.659c0.281-0.655-0.098-1.275-0.484-1.698l-1.873-1.156l1.486,0.579
		C21.15,8.781,22.609,8.514,23.15,7.973z M20.639,9.691l0.369-0.053l-0.266,0.265c-0.002,0.002-0.078,0.078-0.365,0.331h0.021
		c0.107-0.002,0.242,0.007,0.4,0.023c0.213,0.049,0.336-0.004,0.404,0.219c-0.074,0.237-0.223,0.188-0.367,0.263
		c-0.145,0.042-0.285,0.072-0.285,0.072l-0.463,0.146l0.031-0.109c0-0.001,0.502-0.312,0.621-0.346
		c-0.137-0.015-0.25-0.021-0.342-0.021c-0.182,0-0.275,0.018-0.346,0.02c0-0.002-0.109,0-0.145-0.132
		c0.07-0.197,0.104-0.119,0.227-0.257c0.047-0.04,0.088-0.076,0.125-0.109c-0.291,0.051-0.645,0.064-0.766,0.126l-0.006,0.057v0.001
		h-0.002l0.002-0.001l-0.113-0.222C19.688,9.814,20.629,9.693,20.639,9.691z M20.143,5.637c0,0,0.199-0.184,0.414-0.406
		c-1.063-0.002-4.313-0.017-3.234-0.11c0.641-0.056,1.5-0.083,2.199-0.096c0.697-0.013,1.236-0.012,1.236-0.012
		c-0.209-0.187-0.852-0.335-1.271-0.416c-0.371-0.024-0.785-0.054-1.217-0.09c-1.336-0.111-6.518,0.391-6.518,0.391
		s5.736-0.669,6.686-0.725c0.947-0.056,2.635,0.166,2.635,0.166c0.521,0.055,1.736,0.433,1.736,0.433
		c-0.924-0.126-1.164,0.108-1.627,0.444c0.346-0.053,0.762,0.349,0.762,0.349s-0.404,0.194-0.568,0.418
		c-0.162,0.224,0.068,0.454,0.068,0.454l-0.838-0.34c0,0,0.297-0.376,0.414-0.393C20.691,5.354,20.143,5.637,20.143,5.637z
		 M13.229,16.552l1.75,0.75l-1.438-1.063L13.229,16.552z M16.979,17.614l2.188-0.75l-0.25-0.438L16.979,17.614z"/>
</g>
</svg>
