<?xml version="1.0" encoding="iso-8859-1"?>
<!-- Generator: Adobe Illustrator 13.0.0, SVG Export Plug-In . SVG Version: 6.00 Build 14948)  -->
<svg version="1.2" baseProfile="tiny" id="Calque_1"
	 xmlns="http://www.w3.org/2000/svg" xmlns:xlink="http://www.w3.org/1999/xlink" x="0px" y="0px" width="32.165px"
	 height="25.733px" viewBox="0 0 32.165 25.733" xml:space="preserve">
<g id="Riot_1_">
	<g id="XMLID_6_">
		<path d="M0,0h32.165L16.632,24.917l-0.51,0.815L0,0L0,0z M16.122,24.602l0.508-0.32L16.122,24.602L16.122,24.602z"/>
		<polygon fill="#FFFFFF" points="16.12,23.468 30.001,1.199 2.167,1.199 16.12,23.468 		"/>
	</g>
	<path d="M19.245,16.883c-0.013-0.219-0.023-0.439-0.023-0.655c0-0.514,0.049-1.013,0.208-1.466
		c0.117-0.339,0.237-0.657,0.406-0.921c0.131-0.21,0.373-0.411,0.612-0.685c0.573-0.679,1.162-1.332,1.803-1.918
		c0.357-0.328,0.618-0.711,0.86-1.077c0.146-0.225,0.311-0.501,0.343-0.852c0.004-0.052,0.004-0.086,0.004-0.111
		c-0.004-0.26-0.052-0.474-0.052-0.63C23.402,8.507,23.4,8.464,23.4,8.423c0-0.505,0.149-1.034,0.311-1.575
		c0.092-0.341,0.173-0.704,0.173-1.09c0-0.152-0.014-0.31-0.046-0.467l0.019-0.006l-0.082-0.233
		c-0.004-0.012-0.008-0.023-0.013-0.034l-0.068-0.199l-0.025,0.009c-0.192-0.321-0.497-0.524-0.777-0.66
		c-0.083-0.045-0.182-0.094-0.287-0.139c-0.106-0.047-0.207-0.077-0.286-0.109c0.013,0.004,0-0.011,0-0.011
		c-0.201-0.287-0.302-0.867-0.853-1.205c-0.051-0.032-0.096-0.05-0.123-0.059c-0.207-0.139-0.436-0.189-0.644-0.188
		c-0.216,0-0.415,0.047-0.593,0.111c-0.16,0.075-0.498,0.007-0.911,0.122c-0.058,0.015-0.11,0.029-0.146,0.038
		c-0.1-0.048-0.3-0.162-0.563-0.169c-0.002,0-0.025,0-0.025,0c-0.015,0-0.052-0.003-0.106,0.012
		c-0.567,0.067-1.027,0.398-1.38,0.744c-0.146,0.149-0.268,0.219-0.271,0.214h-0.017C16.684,3.53,16.681,3.53,16.677,3.53h-0.014
		c-0.196-0.025-0.497-0.168-0.877-0.174c-0.07-0.003-0.147,0.004-0.227,0.021c-0.508,0.092-0.822,0.46-1.064,0.71
		C14.386,4.221,14.29,4.26,14.29,4.266h-0.009c-0.235-0.034-0.465-0.07-0.709-0.07c-0.23,0-0.481,0.032-0.726,0.146
		c-0.394,0.173-0.589,0.518-0.736,0.764c-0.212,0.375-0.55,0.745-0.774,1.246c-0.148,0.339-0.39,0.707-0.492,1.187
		c-0.131,0.539-0.109,1.07-0.125,1.552c-0.004,0.133-0.006,0.266-0.006,0.396c0,0.467,0.02,0.925,0.027,1.379
		c0.005,0.4,0.124,0.764,0.253,1.087c0.203,0.527,0.388,1.05,0.462,1.571c0.014,0.104,0.02,0.201,0.021,0.305
		c0,0.338-0.068,0.713-0.098,1.121c-0.009,0.131-0.014,0.268-0.014,0.402c0,0.209,0.01,0.405,0.017,0.604l1.05,1.675l-0.021-0.441
		c-0.006-0.158-0.017-0.313-0.027-0.467c0.004-0.009,0.002-0.043,0.002-0.077c0-0.391-0.034-0.766-0.04-1.117l0.265-0.032
		c0.636-0.109,0.83-0.674,0.972-0.693c0.394-0.233,0.831-0.357,1.261-0.357c0.036,0,0.063,0,0.086,0.002
		c0.471,0.021,0.914,0.073,1.316,0.217c0.354,0.124,0.717,0.177,1.068,0.196c0.068,0.005,0.135,0.005,0.194,0.005
		c0.308,0,0.597-0.045,0.869-0.092c-0.112,0.46-0.146,0.929-0.146,1.387c0,0.196,0.005,0.39,0.015,0.586
		c0.069,0.867,0.165,1.722,0.262,2.571l0.034,0.316l0.844-1.354C19.334,17.812,19.283,17.347,19.245,16.883z M17.852,3.874
		c0.163-0.155,0.352-0.275,0.545-0.343c-0.043,0.139-0.071,0.288-0.071,0.45v0.032c0.008,0.451,0.143,0.868,0.278,1.247
		c0.186,0.452,0.46,0.72,0.444,0.908l0.249-0.009l-0.249,0.028c0.003,0.025,0.005,0.062,0.005,0.111
		c0,0.273-0.066,0.535-0.203,0.713c-0.177,0.203-0.459,0.338-0.766,0.381c-0.001-0.079-0.001-0.157-0.001-0.233
		c0-0.04-0.002-0.069-0.002-0.083l0.002-0.007V7.038c-0.002-0.505,0.106-1.047,0.106-1.634c0-0.063,0-0.128-0.002-0.192
		c-0.017-0.225-0.043-0.526-0.266-0.785c-0.102-0.104-0.204-0.226-0.315-0.337C17.698,4.015,17.778,3.938,17.852,3.874z
		 M11.685,9.495c0-0.122,0.004-0.239,0.011-0.351c0.032-0.471,0.023-0.912,0.107-1.306c0.009-0.044,0.024-0.091,0.043-0.143
		c0.203,0.021,0.542,0.055,0.744,0.082l0.016-0.036L12.592,7.78c0.01,0.004,0.022,0.01,0.038,0.016
		c0.009,0.01,0.01,0.014,0.014,0.013c0.068,0.167,0.049,0.544,0.319,0.891c0.042,0.05,0.086,0.095,0.129,0.136
		C12.959,8.915,12.837,9,12.725,9.076c-0.347,0.23-0.705,0.509-1.035,0.704C11.687,9.685,11.685,9.59,11.685,9.495z M14.084,12.925
		c-0.357,0.034-0.738,0.045-1.135,0.106l-0.098,0.018l-0.059,0.075c-0.103,0.124-0.143,0.252-0.147,0.297l-0.025,0.09l-0.079,0.298
		l0.419,0.021c0.19,0.007,0.387,0.022,0.593,0.029c-0.191,0.083-0.377,0.19-0.552,0.328c-0.198,0.193-0.425,0.382-0.611,0.635
		c0.039-0.285,0.067-0.573,0.067-0.868c0-0.16-0.008-0.323-0.029-0.485c-0.082-0.722-0.36-1.368-0.578-1.977
		c-0.022-0.059-0.041-0.119-0.058-0.179l0.257-0.24c0.098-0.094,0.201-0.233,0.336-0.371c0.271-0.135,0.717-0.467,0.946-0.564
		c0.271-0.132,0.544-0.247,0.82-0.335c-0.029,0.037-0.058,0.075-0.087,0.114c-0.372,0.519-0.772,1.063-1.035,1.713
		c-0.104,0.27-0.253,0.571-0.307,0.939l-0.021,0.139l-0.062,0.395l0.52-0.161c0.355-0.178,0.521-0.537,0.643-0.764
		c0.217-0.65,0.623-1.11,1.073-1.68c-0.159,0.489-0.232,1.002-0.232,1.508v0.009c0.012,0.29,0.191,0.573,0.274,0.7
		C14.571,12.776,14.295,12.911,14.084,12.925z M15.013,7.989l-0.002-0.001L14.93,8.232c-0.041,0.124-0.117,0.208-0.184,0.229
		c-0.035,0.015-0.048,0.019-0.093,0.019h-0.013c-0.07,0.002-0.216-0.043-0.394-0.079c-0.174-0.047-0.347-0.075-0.474-0.124
		c0-0.002-0.087-0.174-0.106-0.366c-0.036-0.284-0.075-0.586-0.163-0.895c-0.099-0.359-0.343-1.054-0.363-1.12l-0.043-0.149
		l-0.063-0.22c0.118-0.194,0.232-0.331,0.331-0.356c0.103-0.038,0.203-0.053,0.316-0.053c0.189-0.002,0.422,0.042,0.688,0.051
		c0.046,0.06,0.087,0.097,0.099,0.113c0.209,0.215,0.368,0.39,0.43,0.565c0.158,0.398,0.24,0.824,0.24,1.25
		C15.138,7.398,15.097,7.699,15.013,7.989z M15.216,4.749c0.204-0.205,0.458-0.435,0.632-0.468c0.035-0.009,0.064-0.011,0.09-0.011
		l0.011-0.154v0.151h0.02l0,0c0.161,0,0.435,0.144,0.801,0.172c0.18,0.339,0.449,0.5,0.396,0.522
		c0.023,0.143,0.031,0.28,0.031,0.428c0,0.391-0.072,0.817-0.096,1.273c-0.005,0.075-0.007,0.154-0.007,0.233
		c0,0.158,0.005,0.311,0.005,0.456c0,0.253-0.024,0.463-0.107,0.646c-0.087,0.231-0.409,0.395-0.746,0.431
		c-0.021-0.03-0.045-0.062-0.069-0.095c-0.047-0.066-0.099-0.131-0.129-0.18c-0.029-0.042-0.021-0.046-0.029-0.047
		c0.077-0.345,0.111-0.654,0.111-0.959c0-0.33-0.037-0.659-0.125-0.982c-0.087-0.334-0.19-0.743-0.487-1.088
		C15.426,4.977,15.329,4.861,15.216,4.749z M18.558,13.896c-0.381,0.002-0.803-0.113-1.279-0.165
		c-0.142-0.015-0.285-0.075-0.402-0.173c-0.346-0.255-0.717-0.664-1.294-0.818c0.003-0.009,0.006-0.017,0.008-0.025l0.012-0.013
		v-0.097c0-0.072-0.008-0.156-0.008-0.278c0-0.408,0.047-1.173,0.392-1.892c0.196-0.418,0.58-0.756,1.008-1.054
		c0.39-0.261,0.726-0.539,1.083-0.683c0.33-0.137,0.673-0.276,1.011-0.445c0.264-0.124,0.501-0.231,0.685-0.227V8.023
		c0.02,0.006,0.066,0.03,0.142,0.069c0.009,0.018,0.064,0.084,0.092,0.142c0.156,0.264,0.307,0.499,0.517,0.675l0.098,0.117
		c0.059,0.088,0.228,0.197,0.323,0.199l0.178,0.007l0.377,0.004l-0.19-0.469c-0.14-0.358-0.317-0.681-0.479-0.99
		c0.091,0.022,0.187,0.043,0.288,0.059c0.244,0.037,0.479,0.063,0.711,0.086l0.108,0.013l0.311,0.034L22.201,7.55
		c-0.09-0.28-0.311-0.347-0.385-0.375l-0.001,0.003c-0.158-0.056-0.705-0.201-1.044-0.329c0.15-0.157,0.292-0.258,0.488-0.315
		c0.316-0.084,0.447-0.195,0.636-0.326c0.092-0.092,0.231-0.153,0.353-0.284l0.054-0.066l0.009-0.233l0.015-0.413L21.82,5.452
		c-0.017,0.017-1.021,0.44-1.392,0.451h-0.027c-0.052,0-0.116-0.015-0.201-0.052c-0.045-0.031-0.142-0.106-0.225-0.188
		c-0.217-0.195-0.379-0.448-0.469-0.72c-0.104-0.3-0.185-0.591-0.185-0.85c0.002-0.092,0.011-0.176,0.03-0.255
		c0.029-0.149,0.144-0.268,0.241-0.285c0.056-0.013,0.111-0.017,0.172-0.017c0.137,0,0.282,0.032,0.422,0.097
		c0.062,0.043,0.137,0.136,0.238,0.246h-0.168l0.466,0.283c0.051,0.04,0.106,0.079,0.166,0.117c0.052,0.029,0.092,0.045,0.115,0.053
		l0.017,0.011c0.488,0.289,0.987,0.366,1.364,0.524c0.09,0.043,0.176,0.088,0.241,0.14c0.142,0.103,0.233,0.282,0.255,0.478
		c0.007,0.062,0.011,0.124,0.011,0.196c0,0.36-0.104,0.749-0.225,1.152c-0.142,0.464-0.257,0.967-0.257,1.494
		c0,0.079,0.002,0.167,0.011,0.259c0.009,0.192,0.043,0.374,0.043,0.507c-0.002,0.082-0.011,0.144-0.034,0.201
		c-0.081,0.208-0.229,0.418-0.395,0.653c-0.291,0.428-0.736,0.792-1.16,1.233c-0.571,0.543-1.022,1.168-1.541,1.68
		c-0.303,0.309-0.507,0.668-0.661,1.031C18.638,13.896,18.598,13.896,18.558,13.896z"/>
</g>
</svg>
