<?xml version="1.0" encoding="iso-8859-1"?>
<!-- Generator: Adobe Illustrator 13.0.0, SVG Export Plug-In . SVG Version: 6.00 Build 14948)  -->
<svg version="1.2" baseProfile="tiny" id="Calque_1"
	 xmlns="http://www.w3.org/2000/svg" xmlns:xlink="http://www.w3.org/1999/xlink" x="0px" y="0px" width="32.165px"
	 height="25.732px" viewBox="0 0 32.165 25.732" xml:space="preserve">
<g id="Contagious">
	<g>
		<polygon fill="#FFFFFF" stroke="#FF0000" stroke-width="1.2" points="16.123,24.6 1.084,0.6 31.084,0.6 		"/>
	</g>
	<path id="Symbol_102_" d="M21.131,8.653c0.254-1.006,0.196-2.09-0.25-3.043c-0.879-2.083-3.396-3.249-5.558-2.584
		c-1.605,0.449-2.888,1.82-3.256,3.44c-0.148,0.632-0.267,1.27-0.389,1.907l-0.091,0.082c-0.008,0.021-1.103,0.962-1.119,2.165
		c0,0.258,0.055,0.527,0.191,0.79c0.664,1.288,0.925,1.593,0.947,1.62l0.048,0.057l0.072,0.017c0.009,0.003,1.167,0.293,1.799,0.336
		c0.017,0,0.034,0,0.034,0c0.211-0.024,0.396-0.129,0.556-0.268c0.114-0.002,0.228-0.008,0.34-0.003
		c0.008,0.42-0.021,0.841,0.01,1.259c0.071,0.299,0.369,0.575,0.688,0.557c1.104,0.015,2.209,0.019,3.315,0.005
		c0.379,0.031,0.77-0.26,0.784-0.654c0.05-0.988-0.051-1.976,0.015-2.964c0.87-0.581,1.482-1.475,1.79-2.462
		c-0.688,0.266-2.342,0.811-3.611,1.143c-1.021,0.266-2.678,0.386-3.504,0.434c-0.13-0.155-0.256-0.309-0.376-0.457
		c0.567-0.026,2.641-0.14,3.76-0.435c1.337-0.35,3.18-0.966,3.705-1.184v0.002L21.131,8.653z M13.543,12.966
		c-0.445-0.027-1.351-0.238-1.622-0.303c-0.043-0.058-0.117-0.17-0.23-0.359l0.525-0.214l-0.092-0.219l-0.555,0.226
		c-0.048-0.081-0.095-0.168-0.151-0.27l0.539-0.221l-0.091-0.22l-0.562,0.23c-0.041-0.078-0.086-0.162-0.132-0.253l0.592-0.241
		l-0.091-0.219l-0.606,0.248c-0.086-0.18-0.124-0.355-0.126-0.532c-0.015-0.705,0.599-1.424,0.855-1.698
		c0.223,0.124,0.651,0.398,0.929,0.796c0.085,0.122,0.202,0.275,0.336,0.444c0.467,0.582,1.136,1.357,1.385,1.645
		c-0.06,0.132-0.162,0.343-0.289,0.554c-0.196,0.352-0.509,0.639-0.597,0.605H13.543z M13.724,8.137
		c-0.343,0-0.623-0.279-0.623-0.623c0-0.345,0.28-0.623,0.623-0.623c0.345,0,0.623,0.278,0.623,0.623
		C14.347,7.858,14.069,8.137,13.724,8.137z"/>
</g>
</svg>
