<?xml version="1.0" encoding="iso-8859-1"?>
<!-- Generator: Adobe Illustrator 13.0.0, SVG Export Plug-In . SVG Version: 6.00 Build 14948)  -->
<svg version="1.2" baseProfile="tiny" id="Calque_1"
	 xmlns="http://www.w3.org/2000/svg" xmlns:xlink="http://www.w3.org/1999/xlink" x="0px" y="0px" width="32.165px"
	 height="25.732px" viewBox="0 0 32.165 25.732" xml:space="preserve">
<g id="Rock_slide_1_">
	<g>
		<polygon fill="#FFFFFF" stroke="#FF0000" stroke-width="1.2" points="16.123,24.6 1.084,0.6 31.084,0.6 		"/>
	</g>
	<path d="M11.311,3.765l-0.662-0.221v0.81h0.588L11.311,3.765z M11.311,3.103c0.293,0.073,0.809-0.074,0.809-0.074l-0.073-1.323
		l-1.397,0.073l0.072,0.883C10.721,2.662,11.016,3.029,11.311,3.103z M12.782,5.236l1.691,0.147l0.516-1.029l-1.104-0.662H12.34
		l0.073,0.883L12.782,5.236z M16.634,13.748l-0.63,0.649l0.02,2.096l0.332,0.594l1.985,0.5l0.704-0.648l0.057-1.781l-1.355-1.335
		L16.634,13.748z M13.125,12.42l-0.85-5.723L9.942,4.04l-0.24-2.793H2.208l1.559,2.553l12.354,19.714l1.301-2.087l-5.18-7.24
		L13.125,12.42z M14.526,8.546l1.248,2.229l0.704,0.44l2.416-0.628l0.373-1.106l-0.983-1.938L16.052,6.91l-1.233,0.573L14.526,8.546
		z M13.742,12.189v0.834l1.095,0.631l0.74-0.704l-0.593-0.816l-0.667-0.074L13.742,12.189z"/>
</g>
</svg>
