<?xml version="1.0"?>
<!DOCTYPE svg PUBLIC "-//W3C//DTD SVG 1.1//EN" "http://www.w3.org/Graphics/SVG/1.1/DTD/svg11.dtd">
<svg xmlns="http://www.w3.org/2000/svg" xmlns:xl="http://www.w3.org/1999/xlink" version="1.1" viewBox="1 2 123 104" width="123pt" height="104pt"><metadata xmlns:dc="http://purl.org/dc/elements/1.1/"><dc:date>2014-11-04 15:50Z</dc:date><!-- Produced by OmniGraffle Professional 5.4.4 --></metadata><defs></defs><g stroke="none" stroke-opacity="1" stroke-dasharray="none" fill="none" fill-opacity="1"><title>Canevas 1</title><rect fill="white" width="559" height="783"/><g><title>Calque 1</title><path d="M 17 15 L 62.5 90 L 108 15 Z" fill="white"/><path d="M 17 15 L 62.5 90 L 108 15 Z" stroke="red" stroke-linecap="round" stroke-linejoin="miter" stroke-width="7"/></g></g></svg>
