<?xml version="1.0" encoding="iso-8859-1"?>
<!-- Generator: Adobe Illustrator 13.0.0, SVG Export Plug-In . SVG Version: 6.00 Build 14948)  -->
<svg version="1.2" baseProfile="tiny" id="Calque_1"
	 xmlns="http://www.w3.org/2000/svg" xmlns:xlink="http://www.w3.org/1999/xlink" x="0px" y="0px" width="25px" height="25px"
	 viewBox="0 0 25 25" xml:space="preserve">
<g id="Truck">
	<g>
		<g>
			<circle fill="#218E3D" cx="12.5" cy="12.5" r="12"/>
			<path fill="#FFFFFF" d="M0,12.5C0.001,5.596,5.598,0,12.501,0l0,0C19.404,0,25,5.596,25,12.5l0,0
				c0,6.902-5.596,12.498-12.499,12.5l0,0C5.598,24.998,0.001,19.402,0,12.5L0,12.5z M1,12.5c0.012,6.353,5.15,11.487,11.501,11.499
				l0,0C18.852,23.987,23.989,18.853,24,12.5l0,0C23.989,6.148,18.852,1.011,12.501,0.999l0,0C6.15,1.011,1.013,6.148,1,12.5L1,12.5
				z"/>
		</g>
	</g>
	<path id="Symbol_33_" fill="#FFFFFF" d="M16.615,8.779c-0.066-0.365-0.181-0.869-0.657-0.842c-0.534-0.125-0.767,0.411-0.801,0.845
		C15.643,8.792,16.13,8.792,16.615,8.779z M15.581,16.906c0.336,0.986,1.77,1.246,2.433,0.446c0.737-0.759,0.308-2.231-0.762-2.396
		C16.16,14.654,15.111,15.871,15.581,16.906z M16.022,16.402c0-0.502,0.407-0.909,0.909-0.909c0.503,0,0.91,0.407,0.91,0.909
		c0,0.502-0.407,0.909-0.91,0.909C16.43,17.311,16.022,16.904,16.022,16.402z M4.682,15.489c0.738,0.216,1.484,0.398,2.227,0.599
		c0.163-0.378,0.308-0.789,0.627-1.066c0.653-0.596,1.745-0.596,2.407-0.015c0.326,0.265,0.468,0.671,0.653,1.033
		c0.213,0.107,0.462,0.039,0.689,0.06c1.266-0.003,2.531-0.014,3.797,0.004c0.148-0.381,0.297-0.787,0.621-1.06
		c0.635-0.612,1.733-0.629,2.391-0.044c0.36,0.287,0.523,0.731,0.723,1.13c0.656-0.048,1.282-0.274,1.896-0.498
		c-0.015-0.956,0.006-1.912-0.014-2.869c-0.371-0.398-0.851-0.635-1.33-0.867c-0.508-0.943-0.582-2.385-1.786-2.729
		c-0.984-0.069-1.977-0.009-2.965-0.03c-0.002-0.552-0.011-1.105-0.008-1.658c-2.965,0.006-5.931-0.009-8.896,0.008
		C5.204,7.481,4.737,7.88,4.697,8.394C4.678,10.759,4.689,13.124,4.682,15.489z M15.485,9.709c0.659,0.012,1.32-0.042,1.978,0.021
		c0.318,0.03,0.515,0.318,0.628,0.588c0.279,0.661,0.543,1.329,0.789,2.001c-1.13-0.011-2.262,0-3.391-0.006
		C15.479,11.445,15.481,10.577,15.485,9.709z M7.297,16.257c-0.098,0.86,0.705,1.662,1.564,1.569
		c0.745-0.027,1.365-0.724,1.335-1.465c0.012-0.689-0.532-1.354-1.23-1.422C8.158,14.791,7.33,15.432,7.297,16.257z M7.834,16.402
		c0-0.502,0.407-0.909,0.909-0.909s0.909,0.407,0.909,0.909c0,0.502-0.407,0.909-0.909,0.909S7.834,16.904,7.834,16.402z"/>
</g>
</svg>
