<?xml version="1.0"?>
<!DOCTYPE svg PUBLIC "-//W3C//DTD SVG 1.1//EN" "http://www.w3.org/Graphics/SVG/1.1/DTD/svg11.dtd">
<svg xmlns="http://www.w3.org/2000/svg" xmlns:xl="http://www.w3.org/1999/xlink" version="1.1" viewBox="-5 -3 334 172" width="334pt" height="172pt"><metadata xmlns:dc="http://purl.org/dc/elements/1.1/"><dc:date>2015-02-11 16:43Z</dc:date><!-- Produced by OmniGraffle Professional 5.4.4 --></metadata><defs><font-face font-family="Calibri" font-size="30" panose-1="2 15 7 2 3 4 4 3 2 4" units-per-em="1000" underline-position="-87.402344" underline-thickness="90.82031" slope="0" x-height="468.74997" cap-height="631.83594" ascent="952.1484" descent="-268.55469" font-weight="bold"><font-face-src><font-face-name name="Calibri-Bold"/></font-face-src></font-face></defs><g stroke="none" stroke-opacity="1" stroke-dasharray="none" fill="none" fill-opacity="1"><title>Canevas 1</title><g><title>Calque 1</title><rect x="8" y="10" width="308" height="146" fill="white"/><rect x="8" y="10" width="308" height="146" stroke="black" stroke-linecap="round" stroke-linejoin="round" stroke-width="5"/><rect x="34" y="37" width="256" height="92" fill="white"/><text transform="translate(39 46)" fill="black"><tspan font-family="Calibri" font-size="30" font-weight="bold" x="57.484863" y="29" textLength="59.72168">Lądo</tspan><tspan font-family="Calibri" font-size="30" font-weight="bold" x="117.14795" y="29" textLength="56.088867">wisk</tspan><tspan font-family="Calibri" font-size="30" font-weight="bold" x="172.38721" y="29" textLength="22.910156">o </tspan><tspan font-family="Calibri" font-size="30" font-weight="bold" x="57.396973" y="66" textLength="82.001953">śmigło</tspan><tspan font-family="Calibri" font-size="30" font-weight="bold" x="139.34033" y="66" textLength="22.353516">w</tspan><tspan font-family="Calibri" font-size="30" font-weight="bold" x="161.41553" y="66" textLength="12.553711">c</tspan><tspan font-family="Calibri" font-size="30" font-weight="bold" x="173.79346" y="66" textLength="14.80957">a</tspan></text></g></g></svg>
