<?xml version="1.0"?>
<!DOCTYPE svg PUBLIC "-//W3C//DTD SVG 1.1//EN" "http://www.w3.org/Graphics/SVG/1.1/DTD/svg11.dtd">
<svg xmlns="http://www.w3.org/2000/svg" xmlns:xl="http://www.w3.org/1999/xlink" version="1.1" viewBox="-3 -6 330 409" width="330pt" height="409pt"><metadata xmlns:dc="http://purl.org/dc/elements/1.1/"><dc:date>2014-11-11 09:23Z</dc:date><!-- Produced by OmniGraffle Professional 5.4.4 --></metadata><defs><font-face font-family="Helvetica" font-size="30" units-per-em="1000" underline-position="-75.683594" underline-thickness="49.316406" slope="0" x-height="522.94922" cap-height="717.28516" ascent="770.01953" descent="-229.98045" font-weight="500"><font-face-src><font-face-name name="Helvetica"/></font-face-src></font-face></defs><g stroke="none" stroke-opacity="1" stroke-dasharray="none" fill="none" fill-opacity="1"><title>Canevas 1</title><rect fill="white" width="559" height="783"/><g><title>Calque 1</title><rect x="12" y="9.5" width="301" height="170.5" fill="white"/><rect x="12" y="9.5" width="301" height="170.5" stroke="blue" stroke-linecap="round" stroke-linejoin="miter" stroke-width="8"/><text transform="translate(17 76.75)" fill="blue"><tspan font-family="Helvetica" font-size="30" font-weight="500" fill="blue" x="95.490234" y="29" textLength="100.01953">SzBOR</tspan></text><rect x="8" y="5.5" width="9" height="386" fill="blue"/><rect x="8" y="5.5" width="9" height="386" stroke="blue" stroke-linecap="round" stroke-linejoin="round" stroke-width="1"/><rect x="262" y="49.25" width="22" height="91" fill="white"/><rect x="262" y="49.25" width="22" height="91" stroke="blue" stroke-linecap="round" stroke-linejoin="miter" stroke-width="8"/><rect x="284" y="49.25" width="22" height="91" fill="white"/><rect x="284" y="49.25" width="22" height="91" stroke="blue" stroke-linecap="round" stroke-linejoin="miter" stroke-width="8"/></g></g></svg>
