<?xml version="1.0"?>
<!DOCTYPE svg PUBLIC "-//W3C//DTD SVG 1.1//EN" "http://www.w3.org/Graphics/SVG/1.1/DTD/svg11.dtd">
<svg xmlns="http://www.w3.org/2000/svg" xmlns:xl="http://www.w3.org/1999/xlink" version="1.1" viewBox="-4 2 346 123" width="346pt" height="123pt"><metadata xmlns:dc="http://purl.org/dc/elements/1.1/"><dc:date>2015-03-09 16:31Z</dc:date><!-- Produced by OmniGraffle Professional 5.4.4 --></metadata><defs><font-face font-family="Calibri" font-size="30" panose-1="2 15 7 2 3 4 4 3 2 4" units-per-em="1000" underline-position="-87.402344" underline-thickness="90.82031" slope="0" x-height="468.74997" cap-height="631.83594" ascent="952.1484" descent="-268.55469" font-weight="bold"><font-face-src><font-face-name name="Calibri-Bold"/></font-face-src></font-face></defs><g stroke="none" stroke-opacity="1" stroke-dasharray="none" fill="none" fill-opacity="1"><title>Canevas 1</title><rect fill="white" width="559" height="783"/><g><title>Calque 1</title><rect x="9" y="15" width="320" height="97" fill="white"/><rect x="9" y="15" width="320" height="97" stroke="black" stroke-linecap="round" stroke-linejoin="round" stroke-width="5"/><rect x="41" y="17.5" width="256" height="92" fill="white"/><text transform="translate(46 26.5)" fill="black"><tspan font-family="Calibri" font-size="30" font-weight="bold" x="62.458008" y="29" textLength="71.293945">Radio</tspan><tspan font-family="Calibri" font-size="30" font-weight="bold" x="133.69336" y="29" textLength="22.353516">w</tspan><tspan font-family="Calibri" font-size="30" font-weight="bold" x="155.79785" y="29" textLength="16.12793">ó</tspan><tspan font-family="Calibri" font-size="30" font-weight="bold" x="171.61816" y="29" textLength="18.706055">z </tspan><tspan font-family="Calibri" font-size="30" font-weight="bold" x="67.42383" y="66" textLength="97.48535">policyjn</tspan><tspan font-family="Calibri" font-size="30" font-weight="bold" x="164.36719" y="66" textLength="14.208984">y</tspan></text></g></g></svg>
